<?xml version="1.0" encoding="utf-8"?>
<!-- Generator: Adobe Illustrator 22.0.0, SVG Export Plug-In . SVG Version: 6.00 Build 0)  -->
<svg version="1.1" id="Layer_1" xmlns="http://www.w3.org/2000/svg" xmlns:xlink="http://www.w3.org/1999/xlink" x="0px" y="0px"
	 viewBox="0 0 25 25" style="enable-background:new 0 0 25 25;" xml:space="preserve">
<style type="text/css">
	.st0{fill:url(#SVGID_1_);}
	.st1{fill:url(#SVGID_2_);}
	.st2{opacity:0.46;fill:url(#SVGID_3_);}
	.st3{fill:url(#SVGID_4_);}
	.st4{opacity:0.46;fill:url(#SVGID_5_);}
	.st5{opacity:0.46;fill:url(#SVGID_6_);}
	.st6{fill:#FFFFFF;}
	.st7{opacity:0.46;fill:url(#SVGID_7_);}
	.st8{opacity:0.46;fill:url(#SVGID_8_);}
	.st9{opacity:0.46;fill:url(#SVGID_9_);}
	.st10{opacity:0.46;fill:url(#SVGID_10_);}
	.st11{fill:#FF9300;}
	.st12{fill:#D66E00;}
	.st13{opacity:0.8;fill:#B3B3B3;}
</style>
<linearGradient id="SVGID_1_" gradientUnits="userSpaceOnUse" x1="3.6612" y1="21.3391" x2="21.3391" y2="3.6612">
	<stop  offset="0" style="stop-color:#A86228"/>
	<stop  offset="0.25" style="stop-color:#E2931D"/>
	<stop  offset="0.5" style="stop-color:#F9C035"/>
	<stop  offset="0.75" style="stop-color:#E2931D"/>
	<stop  offset="0.991" style="stop-color:#A86228"/>
</linearGradient>
<path class="st0" d="M12.5,0C5.6,0,0,5.6,0,12.5C0,19.4,5.6,25,12.5,25C19.4,25,25,19.4,25,12.5C25,5.6,19.4,0,12.5,0z M12.5,24.2
	C6,24.2,0.8,19,0.8,12.5C0.8,6,6,0.8,12.5,0.8C19,0.8,24.2,6,24.2,12.5C24.2,19,19,24.2,12.5,24.2z"/>
<g>
	<linearGradient id="SVGID_2_" gradientUnits="userSpaceOnUse" x1="5.6436" y1="15.043" x2="19.3567" y2="15.043">
		<stop  offset="0" style="stop-color:#A86228"/>
		<stop  offset="0.25" style="stop-color:#E2931D"/>
		<stop  offset="0.5" style="stop-color:#F9C035"/>
		<stop  offset="0.75" style="stop-color:#E2931D"/>
		<stop  offset="0.991" style="stop-color:#A86228"/>
	</linearGradient>
	<path class="st1" d="M19.2,16.2c0,0-1.1-5.6-5.2-8h-3c-4.1,2.5-5.2,8-5.2,8c-1.2,6.5,6.3,5.7,6.3,5.7h0.8
		C12.9,21.9,20.4,22.7,19.2,16.2z"/>
	<linearGradient id="SVGID_3_" gradientUnits="userSpaceOnUse" x1="6.0247" y1="15.043" x2="19.3567" y2="15.043">
		<stop  offset="0" style="stop-color:#A86228"/>
		<stop  offset="0.25" style="stop-color:#E2931D"/>
		<stop  offset="0.5" style="stop-color:#F9C035"/>
		<stop  offset="0.75" style="stop-color:#E2931D"/>
		<stop  offset="0.991" style="stop-color:#A86228"/>
	</linearGradient>
	<path class="st2" d="M19.2,16.2c0,0-1.1-5.6-5.2-8h-1.6c2.8,2.5,3.6,6.5,3.6,6.5c1.1,5.9-5.8,5.2-5.8,5.2H9.4c0,0-1.8,0.2-3.4-0.4
		c1.4,3,6.1,2.5,6.1,2.5h0.8C12.9,21.9,20.4,22.7,19.2,16.2z"/>
	<linearGradient id="SVGID_4_" gradientUnits="userSpaceOnUse" x1="7.7651" y1="5.6298" x2="18.2658" y2="5.6298">
		<stop  offset="0" style="stop-color:#A86228"/>
		<stop  offset="0.25" style="stop-color:#E2931D"/>
		<stop  offset="0.5" style="stop-color:#F9C035"/>
		<stop  offset="0.75" style="stop-color:#E2931D"/>
		<stop  offset="0.991" style="stop-color:#A86228"/>
	</linearGradient>
	<path class="st3" d="M8,4.5C7.9,4.3,7.6,3.9,7.9,3.7c0.3-0.3,1,0,1.4,0.1c0.5,0.1,1,0.2,1.5,0.2c0.5-0.1,1-0.3,1.5-0.5
		c0.4-0.2,0.9-0.5,1.4-0.3c0.6,0.2,0.8,0.7,1.4,0.7C16.1,4,16.8,3,17.9,3.1c0.5,0.1,0.5,0.4,0.2,0.6L14,8.2h-3L8,4.5z"/>
	<linearGradient id="SVGID_5_" gradientUnits="userSpaceOnUse" x1="9.5373" y1="9.0512" x2="12.3351" y2="9.0512">
		<stop  offset="0" style="stop-color:#A86228"/>
		<stop  offset="0.25" style="stop-color:#E2931D"/>
		<stop  offset="0.5" style="stop-color:#F9C035"/>
		<stop  offset="0.75" style="stop-color:#E2931D"/>
		<stop  offset="0.991" style="stop-color:#A86228"/>
	</linearGradient>
	<path class="st4" d="M11.3,8.2c0,0-1.4,1-1.8,1.8c0,0,1.8-1.4,2.8-1.8H11.3z"/>
	<linearGradient id="SVGID_6_" gradientUnits="userSpaceOnUse" x1="11.7392" y1="9.0512" x2="13.3051" y2="9.0512">
		<stop  offset="0" style="stop-color:#A86228"/>
		<stop  offset="0.25" style="stop-color:#E2931D"/>
		<stop  offset="0.5" style="stop-color:#F9C035"/>
		<stop  offset="0.75" style="stop-color:#E2931D"/>
		<stop  offset="0.991" style="stop-color:#A86228"/>
	</linearGradient>
	<path class="st5" d="M11.7,8.2c0,0,1.1,0.6,1.6,1.8c0,0-0.1-1-0.6-1.8H11.7z"/>
	<path class="st6" d="M15.1,10.9c0,0,0.9,1.7,1.4,3.6C16.5,14.5,16.6,12.4,15.1,10.9z"/>
	<linearGradient id="SVGID_7_" gradientUnits="userSpaceOnUse" x1="9.7637" y1="5.6722" x2="11.7392" y2="5.6722">
		<stop  offset="0" style="stop-color:#A86228"/>
		<stop  offset="0.25" style="stop-color:#E2931D"/>
		<stop  offset="0.5" style="stop-color:#F9C035"/>
		<stop  offset="0.75" style="stop-color:#E2931D"/>
		<stop  offset="0.991" style="stop-color:#A86228"/>
	</linearGradient>
	<path class="st7" d="M9.8,3.9l2,3.7V3.7c0,0-0.1,0-0.1,0c0,0,0,0,0,0c0,0-0.1,0-0.1,0c0,0,0,0,0,0c0,0-0.1,0-0.1,0c0,0,0,0,0,0
		c0,0-0.1,0-0.1,0c0,0,0,0,0,0c0,0-0.1,0-0.1,0c0,0,0,0,0,0c0,0-0.1,0-0.1,0c0,0,0,0,0,0c0,0-0.1,0-0.1,0c0,0,0,0,0,0
		c0,0-0.1,0-0.1,0C10.4,4,10.1,4,9.8,3.9z"/>
	<linearGradient id="SVGID_8_" gradientUnits="userSpaceOnUse" x1="9.1122" y1="5.036" x2="10.7515" y2="5.036">
		<stop  offset="0" style="stop-color:#A86228"/>
		<stop  offset="0.25" style="stop-color:#E2931D"/>
		<stop  offset="0.5" style="stop-color:#F9C035"/>
		<stop  offset="0.75" style="stop-color:#E2931D"/>
		<stop  offset="0.991" style="stop-color:#A86228"/>
	</linearGradient>
	<path class="st8" d="M9.2,3.8c0,0-0.1,0-0.1,0l1.6,2.5L9.6,3.9C9.4,3.9,9.3,3.8,9.2,3.8z"/>
	<linearGradient id="SVGID_9_" gradientUnits="userSpaceOnUse" x1="13.1318" y1="5.6298" x2="18.2658" y2="5.6298">
		<stop  offset="0" style="stop-color:#A86228"/>
		<stop  offset="0.25" style="stop-color:#E2931D"/>
		<stop  offset="0.5" style="stop-color:#F9C035"/>
		<stop  offset="0.75" style="stop-color:#E2931D"/>
		<stop  offset="0.991" style="stop-color:#A86228"/>
	</linearGradient>
	<path class="st9" d="M18,3.7c0.3-0.2,0.4-0.6-0.2-0.6c-1-0.1-1.6,0.7-2.5,0.8l-2.2,4.3H14L18,3.7z"/>
	<linearGradient id="SVGID_10_" gradientUnits="userSpaceOnUse" x1="13.3955" y1="5.3257" x2="15.0139" y2="5.3257">
		<stop  offset="0" style="stop-color:#A86228"/>
		<stop  offset="0.25" style="stop-color:#E2931D"/>
		<stop  offset="0.5" style="stop-color:#F9C035"/>
		<stop  offset="0.75" style="stop-color:#E2931D"/>
		<stop  offset="0.991" style="stop-color:#A86228"/>
	</linearGradient>
	<path class="st10" d="M13.4,7.1L15,3.9c-0.3,0-0.5-0.2-0.8-0.3L13.4,7.1z"/>
	<g>
		<g>
			<path class="st11" d="M14.8,8C14.8,8,14.8,8,14.8,8c-1.6-0.3-4.3,0-4.3,0c-0.2,0-0.3-0.1-0.3-0.3c0-0.2,0.1-0.3,0.3-0.4
				c0.1,0,2.9-0.3,4.5,0c0.2,0,0.3,0.2,0.2,0.4C15,7.9,14.9,8,14.8,8z"/>
		</g>
		<g>
			<path class="st12" d="M12.3,7.2c0,0-0.1,0-0.1,0c-0.1,0.1-0.2,0.4-0.3,0.7c0,0,0.1,0,0.1,0C12.1,7.6,12.2,7.3,12.3,7.2z"/>
			<path class="st12" d="M11.5,7.3c0,0-0.1,0-0.1,0c-0.1,0.1-0.2,0.4-0.2,0.7c0,0,0.1,0,0.1,0C11.3,7.6,11.4,7.4,11.5,7.3z"/>
			<path class="st12" d="M11.9,7.2c0,0-0.1,0-0.1,0c-0.1,0.1-0.2,0.4-0.3,0.7c0,0,0.1,0,0.1,0C11.7,7.6,11.8,7.4,11.9,7.2z"/>
			<path class="st12" d="M11.1,7.3c0,0-0.1,0-0.1,0c-0.1,0.2-0.2,0.4-0.2,0.7c0,0,0.1,0,0.1,0C10.9,7.7,11,7.4,11.1,7.3z"/>
			<path class="st12" d="M10.5,7.4c-0.1,0.2-0.2,0.4-0.2,0.6c0,0,0.1,0,0.1,0c0.1-0.3,0.2-0.5,0.2-0.7C10.6,7.3,10.6,7.4,10.5,7.4z"
				/>
			<path class="st12" d="M14.6,7.3c0,0-0.1,0-0.1,0c-0.1,0.1-0.2,0.4-0.2,0.6c0,0,0.1,0,0.1,0C14.4,7.7,14.5,7.5,14.6,7.3z"/>
			<path class="st12" d="M14.8,7.4C14.8,7.4,14.8,7.4,14.8,7.4c-0.1,0.1-0.2,0.4-0.2,0.6c0,0,0.1,0,0.1,0c0,0,0,0,0,0
				C14.8,7.8,14.9,7.6,14.8,7.4C14.9,7.4,14.9,7.4,14.8,7.4z"/>
			<path class="st12" d="M13.9,7.2c0,0-0.1,0-0.1,0c-0.1,0.1-0.2,0.3-0.3,0.6c0,0,0.1,0,0.1,0C13.7,7.6,13.8,7.4,13.9,7.2z"/>
			<path class="st12" d="M14.2,7.3c0,0-0.1,0-0.1,0c-0.1,0.1-0.2,0.3-0.2,0.6c0,0,0.1,0,0.1,0C14,7.6,14.2,7.4,14.2,7.3z"/>
			<path class="st12" d="M13.5,7.2c0,0-0.1,0-0.1,0c-0.1,0.1-0.2,0.3-0.3,0.6c0,0,0.1,0,0.1,0C13.3,7.6,13.4,7.3,13.5,7.2z"/>
			<path class="st12" d="M13,7.2c-0.1,0.1-0.2,0.4-0.3,0.6c0,0,0.1,0,0.1,0c0.1-0.3,0.2-0.5,0.3-0.6C13.1,7.2,13,7.2,13,7.2z"/>
			<path class="st12" d="M12.7,7.2c0,0-0.1,0-0.1,0c-0.1,0.1-0.2,0.4-0.3,0.7c0,0,0.1,0,0.1,0C12.5,7.6,12.6,7.3,12.7,7.2z"/>
		</g>
		<path class="st13" d="M14.8,7.7C14.8,7.7,14.8,7.7,14.8,7.7c-1.6-0.3-4.3,0-4.3,0c-0.1,0-0.2-0.1-0.3-0.2c0,0.1,0,0.1,0,0.2
			c0,0.2,0.2,0.3,0.3,0.3c0,0,2.8-0.3,4.3,0c0,0,0,0,0.1,0c0.1,0,0.3-0.1,0.3-0.3c0-0.1,0-0.1,0-0.2C15,7.7,14.9,7.7,14.8,7.7z"/>
	</g>
	<g>
		<g>
			<path class="st11" d="M14.8,8.7C14.8,8.7,14.8,8.7,14.8,8.7c-1.6-0.3-4.3,0-4.3,0c-0.2,0-0.3-0.1-0.3-0.3c0-0.2,0.1-0.3,0.3-0.4
				c0.1,0,2.9-0.3,4.5,0c0.2,0,0.3,0.2,0.2,0.4C15,8.6,14.9,8.7,14.8,8.7z"/>
		</g>
		<g>
			<path class="st12" d="M12.3,7.9c0,0-0.1,0-0.1,0C12.1,8,12,8.2,11.9,8.5c0,0,0.1,0,0.1,0C12.1,8.2,12.2,8,12.3,7.9z"/>
			<path class="st12" d="M11.5,7.9c0,0-0.1,0-0.1,0c-0.1,0.1-0.2,0.4-0.2,0.7c0,0,0.1,0,0.1,0C11.3,8.3,11.4,8,11.5,7.9z"/>
			<path class="st12" d="M11.9,7.9c0,0-0.1,0-0.1,0c-0.1,0.1-0.2,0.4-0.3,0.7c0,0,0.1,0,0.1,0C11.7,8.2,11.8,8,11.9,7.9z"/>
			<path class="st12" d="M11.1,8c0,0-0.1,0-0.1,0c-0.1,0.2-0.2,0.4-0.2,0.7c0,0,0.1,0,0.1,0C10.9,8.3,11,8.1,11.1,8z"/>
			<path class="st12" d="M10.5,8c-0.1,0.2-0.2,0.4-0.2,0.6c0,0,0.1,0,0.1,0c0.1-0.3,0.2-0.5,0.2-0.7C10.6,8,10.6,8,10.5,8z"/>
			<path class="st12" d="M14.6,8c0,0-0.1,0-0.1,0c-0.1,0.1-0.2,0.4-0.2,0.6c0,0,0.1,0,0.1,0C14.4,8.3,14.5,8.1,14.6,8z"/>
			<path class="st12" d="M14.8,8C14.8,8,14.8,8,14.8,8c-0.1,0.1-0.2,0.4-0.2,0.6c0,0,0.1,0,0.1,0c0,0,0,0,0,0
				C14.8,8.4,14.9,8.2,14.8,8C14.9,8.1,14.9,8,14.8,8z"/>
			<path class="st12" d="M13.9,7.9c0,0-0.1,0-0.1,0c-0.1,0.1-0.2,0.3-0.3,0.6c0,0,0.1,0,0.1,0C13.7,8.2,13.8,8,13.9,7.9z"/>
			<path class="st12" d="M14.2,7.9c0,0-0.1,0-0.1,0c-0.1,0.1-0.2,0.3-0.2,0.6c0,0,0.1,0,0.1,0C14,8.3,14.2,8.1,14.2,7.9z"/>
			<path class="st12" d="M13.5,7.9c0,0-0.1,0-0.1,0c-0.1,0.1-0.2,0.3-0.3,0.6c0,0,0.1,0,0.1,0C13.3,8.2,13.4,8,13.5,7.9z"/>
			<path class="st12" d="M13,7.9c-0.1,0.1-0.2,0.4-0.3,0.6c0,0,0.1,0,0.1,0C12.9,8.2,13,8,13.1,7.9C13.1,7.9,13,7.9,13,7.9z"/>
			<path class="st12" d="M12.7,7.9c0,0-0.1,0-0.1,0c-0.1,0.1-0.2,0.4-0.3,0.7c0,0,0.1,0,0.1,0C12.5,8.2,12.6,8,12.7,7.9z"/>
		</g>
		<path class="st13" d="M14.8,8.4C14.8,8.4,14.8,8.4,14.8,8.4c-1.6-0.3-4.3,0-4.3,0c-0.1,0-0.2-0.1-0.3-0.2c0,0.1,0,0.1,0,0.2
			c0,0.2,0.2,0.3,0.3,0.3c0,0,2.8-0.3,4.3,0c0,0,0,0,0.1,0c0.1,0,0.3-0.1,0.3-0.3c0-0.1,0-0.1,0-0.2C15,8.3,14.9,8.4,14.8,8.4z"/>
	</g>
</g>
</svg>
