<?xml version="1.0" encoding="utf-8"?>
<!-- Generator: Adobe Illustrator 22.0.0, SVG Export Plug-In . SVG Version: 6.00 Build 0)  -->
<svg version="1.1" id="Layer_1" xmlns="http://www.w3.org/2000/svg" xmlns:xlink="http://www.w3.org/1999/xlink" x="0px" y="0px"
	 viewBox="0 0 145.2 128.9" style="enable-background:new 0 0 145.2 128.9;" xml:space="preserve">
<style type="text/css">
	.st0{fill:#FFFFFF;}
	.st1{fill:url(#SVGID_1_);}
	.st2{fill:#39B54A;}
	.st3{fill:url(#SVGID_2_);}
	.st4{fill:#B3B3B3;}
	.st5{fill:url(#SVGID_3_);}
	.st6{fill:url(#SVGID_4_);}
</style>
<g>
	<g>
		<g>
			<g>
				<path class="st0" d="M63.2,28.7c0.1,0.5,0.3,1,0.4,1.4c1.9,6.9,3.9,13.7,5.8,20.6c1.1,3.8,2.2,7.7,3.2,11.5l0,0
					c1,3.6,2,7.3,3,10.9c0.2,0.6,0.3,1.2,0.5,1.9c-0.5,0.3-1.1,0.7-1.6,1l0,0c-1,0.6-1.9,1.2-2.9,1.7c-0.5,0.3-1,0.6-1.5,0.8
					c-2.9,1.6-5.9,3.2-8.9,4.6c-4.2,2-8.3,3.7-12.4,5.2c-1.5-5.8-3.1-11.6-4.5-17.3c-0.1,0-0.2,0.1-0.3,0.1c-1.6,0.5-3,1.3-4.1,2.4
					c1.5,5.5,3,11,4.5,16.5c-2,0.7-3.9,1.2-5.9,1.7c-4,1.1-7.9,1.8-11.5,2.3c-1.9,0.2-3.6,0.4-5.4,0.4C14.5,77.8,7.3,61.4,0,44.9
					c10-3.6,20.1-6.7,30.3-9.3c1.7-0.5,3.5-0.9,5.2-1.3C44.7,32,53.9,30.2,63.2,28.7z"/>
				
					<linearGradient id="SVGID_1_" gradientUnits="userSpaceOnUse" x1="140.7046" y1="46.2423" x2="193.7825" y2="46.2423" gradientTransform="matrix(0.9441 -0.3298 0.3298 0.9441 -132.1862 74.705)">
					<stop  offset="0.1591" style="stop-color:#009245"/>
					<stop  offset="0.903" style="stop-color:#0C6531"/>
				</linearGradient>
				<path class="st1" d="M58.7,33.5c1.7,5.7,3.4,11.4,5,17.1c1.5,5.2,3.1,10.5,4.6,15.7c1,3.4,2,6.8,3,10.3c0.1,0.3,0.2,0.7,0.3,1
					c-0.5,0.3-1,0.6-1.5,0.8c-2.9,1.6-5.9,3.2-8.9,4.6c-4.2,2-8.3,3.7-12.4,5.2c-1.5-5.8-3.1-11.6-4.5-17.3c-0.1,0-0.2,0.1-0.3,0.1
					c-1.6,0.5-3,1.3-4.1,2.4c1.5,5.5,3,11,4.5,16.5c-2,0.7-3.9,1.2-5.9,1.7c-4,1.1-7.9,1.8-11.5,2.3C20.5,78.3,13.9,62.7,7.2,47.1
					c7.9-2.8,16-5.2,24.1-7.4c1.7-0.5,3.4-0.9,5.2-1.3C43.8,36.5,51.2,34.9,58.7,33.5z"/>
			</g>
			<path class="st2" d="M40,73.4c1.5,5.5,3,11,4.5,16.5c-2,0.7-3.9,1.2-5.9,1.7c-0.7-1-1.2-2-1.7-3.2C34.7,82.9,36,76.9,40,73.4z"/>
			<path class="st2" d="M60.7,79.9c0.3,1.1,0.5,2.1,0.6,3.2c-4.2,2-8.3,3.7-12.4,5.2c-1.5-5.8-3.1-11.6-4.5-17.3
				C51.3,68.9,58.6,73,60.7,79.9z"/>
		</g>
		<linearGradient id="SVGID_2_" gradientUnits="userSpaceOnUse" x1="0.1639" y1="51.2416" x2="139.3446" y2="51.2416">
			<stop  offset="8.519630e-02" style="stop-color:#FBB03B"/>
			<stop  offset="0.9261" style="stop-color:#FB703B"/>
		</linearGradient>
		<path class="st3" d="M86.9,79.9C50.1,102,12,106.8,0.2,91.2c13.7,12.4,49.7,5.1,84-17.9c34.5-23.1,55-53.8,48.4-71.2
			c1.7,1.3,3.1,2.9,4.2,4.7C147.3,24.4,125,57,86.9,79.9z"/>
		<path class="st4" d="M144.6,37.6c5.2,10.9-23.2,37.3-63.1,54.5c-37.8,16.4-72.8,16.5-81.3,4.3c8,11.5,42.9,10,80.7-7.3
			c37.6-17.2,64.9-41.8,62.9-52.7C144.1,36.7,144.3,37.2,144.6,37.6z"/>
		<g>
			<path class="st0" d="M91.5,39c-1.2-9.7-2.4-19.3-3.4-28.9c-7,0.6-14,1.3-21,2.3c-1.7,0.2-3.5,0.5-5.2,0.7
				c-11.8,1.7-23.7,3.8-35.4,6.4c1.3,5.4,2.5,10.7,3.9,16.1c0.3,1.4,0.7,2.8,1,4.2c2.8,11.2,10.1,38.9,13.2,50.2c0,0,2.8-1,4.5-1.6
				c0,0,0,0,0,0c0.1,0,0.2-0.1,0.4-0.1c0.3-0.1,0.5-0.2,0.7-0.2l0,0c3.7-1.4,7.5-3,11.3-4.8c3-1.4,5.9-2.9,8.9-4.6
				c0.5-0.3,1-0.5,1.5-0.8c1-0.6,2-1.1,2.9-1.7l0,0c0.5-0.3,1.1-0.6,1.6-1c2.1-1.3,4.3-2.7,6.4-4.1c2.6-1.8,5.2-3.6,7.7-5.4
				c0,0,0,0,0,0c1.5-1.1,3-2.3,4.4-3.4C93.6,54.3,92.5,46.6,91.5,39z"/>
			
				<linearGradient id="SVGID_3_" gradientUnits="userSpaceOnUse" x1="166.5546" y1="38.8673" x2="223.123" y2="38.8673" gradientTransform="matrix(0.9441 -0.3298 0.3298 0.9441 -132.1862 74.705)">
				<stop  offset="0.1591" style="stop-color:#009245"/>
				<stop  offset="0.903" style="stop-color:#0C6531"/>
			</linearGradient>
			<path class="st5" d="M83.1,14.5c1.1,9,2.3,18.1,3.6,27.2c1.1,7.9,2.3,15.8,3.5,23.7c0,0,0,0,0,0c-2.5,1.9-5,3.7-7.7,5.4
				c-2.1,1.4-4.2,2.8-6.4,4.1c-0.5,0.3-1.1,0.7-1.6,1l0,0c-1,0.6-1.9,1.2-2.9,1.7c-0.5,0.3-1,0.6-1.5,0.8c-2.9,1.6-5.9,3.2-8.9,4.6
				c-4.2,2-8.3,3.7-12.4,5.2c-1.5-5.8-3.1-11.6-4.5-17.3c-2.8-10.9-5.5-21.8-8-32.6c-0.3-1.4-0.6-2.7-1-4.1
				c-0.9-3.9-1.8-7.8-2.7-11.7c9.8-2.1,19.6-3.9,29.5-5.4c1.7-0.3,3.5-0.5,5.2-0.8C72.7,15.7,77.9,15.1,83.1,14.5z"/>
			<path class="st2" d="M78.7,61.2c1.2,7.3-2.9,14.4-9.2,16.2c-6.3,1.7-13-2.8-14.7-10.3c-1.8-7.5,2.4-15,9.3-16.5
				C70.9,49.1,77.4,54,78.7,61.2z"/>
		</g>
		<g>
			<g>
				<path class="st0" d="M121.3,0c-0.2,11.3-0.3,22.7-0.1,34.2c-1.4,2.1-3,4.3-4.8,6.4c-3,3.7-6.4,7.4-10.2,11.1l0,0
					c-3.6,3.5-7.4,6.9-11.6,10.3c-1.4,1.2-2.9,2.3-4.4,3.4c0,0,0,0,0,0c-2.5,1.9-5,3.7-7.7,5.4c-2.1,1.4-4.2,2.8-6.4,4.1
					c-0.5,0.3-1.1,0.7-1.6,1l0,0c-1,0.6-1.9,1.2-2.9,1.7c-0.5,0.3-1,0.6-1.5,0.8c-0.1-0.4-0.1-0.9-0.2-1.3
					c-0.6-3.6-1.1-7.2-1.6-10.8c-0.8-5.4-1.5-10.7-2.3-16c-0.9-6.8-1.7-13.5-2.5-20.2c-0.5-4.3-1-8.7-1.4-13
					c-0.1-1.4-0.3-2.8-0.4-4.1c-0.3-3-0.6-6-0.8-9C81.2,1.6,101.3,0.3,121.3,0z"/>
				
					<linearGradient id="SVGID_4_" gradientUnits="userSpaceOnUse" x1="194.8033" y1="35.8637" x2="257.5145" y2="35.8637" gradientTransform="matrix(0.9441 -0.3298 0.3298 0.9441 -132.1862 74.705)">
					<stop  offset="0.1591" style="stop-color:#009245"/>
					<stop  offset="0.903" style="stop-color:#0C6531"/>
				</linearGradient>
				<path class="st6" d="M115.9,4.1c-0.1,12,0.1,24.2,0.5,36.5c-3,3.7-6.4,7.4-10.2,11.1l0,0c-3.6,3.5-7.4,6.9-11.6,10.3
					c-1.4,1.2-2.9,2.3-4.4,3.4c0,0,0,0,0,0c-2.5,1.9-5,3.7-7.7,5.4c-2.1,1.4-4.2,2.8-6.4,4.1c-0.5,0.3-1.1,0.7-1.6,1
					c-0.1-0.5-0.1-0.9-0.2-1.4c-0.6-4.1-1.2-8.2-1.7-12.3l0,0c-0.5-3.6-1-7.2-1.4-10.8c-1.5-11.8-2.7-23.4-3.8-35
					c-0.1-1.4-0.2-2.7-0.4-4.1c-0.1-1.5-0.3-3.1-0.4-4.6C83.2,5.8,99.6,4.6,115.9,4.1z"/>
			</g>
			<path class="st2" d="M106.3,50.6c0,0.4,0,0.7,0,1.1l0,0c-3.6,3.5-7.4,6.9-11.6,10.3c-1.4,1.2-2.9,2.3-4.4,3.4c0,0,0,0,0,0
				c-4.1-1.6-7.3-5.8-7.9-11.3c-0.6-4.9,1.2-9.5,4.4-12.4c1.4-1.3,3-2.2,4.8-2.8c0.5-0.2,1.1-0.3,1.7-0.3
				C100,37.8,105.8,43.2,106.3,50.6z"/>
		</g>
	</g>
	<g>
		<path class="st0" d="M44.9,121.4c0,0.1-0.1,0.3-0.2,0.5c-1.4,1.7-3.3,2.6-5.7,2.6c-2.4,0-4.4-0.8-5.9-2.5
			c-1.5-1.6-2.2-3.6-2.2-6.1c0-2.4,0.7-4.4,2.2-6c1.5-1.7,3.4-2.6,5.8-2.6c2.5,0,4.5,0.8,6,2.3c0.2,0.2,0.2,0.3,0.2,0.5
			c0,0.1-0.3,0.7-0.8,1.7s-0.9,1.5-1,1.6c-0.1,0.1-0.1,0.1-0.2,0.1c0,0-0.2-0.2-0.6-0.5c-0.4-0.4-0.8-0.7-1.2-0.9
			c-0.6-0.3-1.3-0.5-1.9-0.5c-1.1,0-2.1,0.4-2.8,1.3c-0.6,0.8-0.9,1.8-0.9,3c0,1.2,0.3,2.2,0.9,3c0.7,0.9,1.6,1.3,2.8,1.3
			c0.7,0,1.3-0.1,1.9-0.4c0.4-0.2,0.8-0.5,1.2-0.8c0.3-0.3,0.5-0.4,0.6-0.4c0.1,0,0.2,0,0.2,0.1c0.1,0.1,0.5,0.6,1,1.5
			C44.6,120.8,44.9,121.3,44.9,121.4z"/>
		<path class="st0" d="M57.8,118.2c0,0.6,0,1.5,0.1,2.7s0.1,2.1,0.1,2.7c0,0.3-0.1,0.5-0.4,0.5c-1,0.1-2.1,0.1-3.3,0.1
			c-0.1,0-0.2-0.2-0.3-0.7s-0.1-0.7-0.2-0.7c-0.1,0-0.1,0.1-0.2,0.2c-0.9,0.9-1.8,1.3-2.8,1.3c-1.5,0-2.8-0.6-3.8-1.8
			c-0.9-1.1-1.4-2.5-1.4-4c0-1.8,0.5-3.3,1.5-4.4c1-1.1,2.4-1.7,4.2-1.7c1.2,0,2.2,0.4,2.9,1.3c0,0,0.1,0.1,0.1,0.1
			c0.1,0,0.2-0.2,0.2-0.6s0.2-0.6,0.3-0.6c0.3,0,0.8,0.1,1.7,0.2c0.8,0.2,1.3,0.3,1.7,0.4c0.1,0,0.2,0.1,0.2,0.2c0,0,0,0.1,0,0.2
			C57.9,115.1,57.8,116.6,57.8,118.2z M54,118.2c0-0.7-0.2-1.2-0.6-1.6s-1-0.7-1.6-0.7s-1.2,0.2-1.6,0.6s-0.6,1-0.6,1.7
			c0,0.6,0.2,1.2,0.7,1.6s1,0.7,1.6,0.7c0.7,0,1.2-0.2,1.6-0.7S54,118.9,54,118.2z"/>
		<path class="st0" d="M67,114.5c0,0.1-0.1,0.2-0.2,0.3c-0.2-0.1-0.4-0.1-0.7-0.1c-0.5,0-0.8,0.1-1.2,0.3c-0.4,0.2-0.6,0.6-0.6,1
			c0,0.3,0.2,0.6,0.6,1c0.6,0.6,1,1.1,1.1,1.3c0.4,0.6,0.6,1.2,0.6,1.9c0,0.4-0.1,0.8-0.2,1.3c-0.2,0.5-0.4,0.9-0.7,1.1
			c-0.6,0.5-1.3,0.9-2,1.3c-0.8,0.4-1.6,0.5-2.3,0.5c-0.2,0-0.5-0.4-1-1.3s-0.8-1.4-0.8-1.6c0-0.1,0-0.1,0.1-0.1
			c0.5-0.1,1.1-0.2,1.7-0.3c0.7-0.2,1-0.6,1-1.1c0-0.3-0.2-0.7-0.6-1.2c-0.7-0.8-1.1-1.2-1.1-1.3c-0.4-0.6-0.6-1.2-0.6-1.8
			c0-1.2,0.6-2.2,1.8-3c1.1-0.7,2.2-1.1,3.4-1.1c0.1,0,0.4,0.4,0.9,1.3S67,114.4,67,114.5z"/>
		<path class="st0" d="M80.4,115.5l0,8.1c0,0.3-0.1,0.4-0.3,0.5c-0.3,0-0.8,0-1.7,0c-0.9,0-1.5,0-1.8-0.1c-0.3,0-0.4-0.2-0.4-0.5
			c0-0.7,0-1.7,0-3s0-2.4,0-3c0-0.9-0.5-1.4-1.4-1.4c-0.3,0-0.7,0.1-1.1,0.4c-0.5,0.3-0.7,0.6-0.7,0.9v2.9c0,0.4,0,0.9,0,1.7
			s0,1.3,0,1.7c0,0.3-0.1,0.4-0.4,0.5s-0.9,0-2,0c-0.6,0-1.1,0-1.4-0.1s-0.4-0.2-0.4-0.4c0-0.6,0-1.5,0-2.8s0-2.2,0-2.8
			c0-2.6,0-4.7-0.1-6.3c0-0.6,0-1.2-0.1-1.8c0-0.7-0.1-1.3-0.2-1.7c0-0.1,0-0.2,0-0.2c0-0.1,0.1-0.2,0.2-0.2
			c0.2-0.1,0.6-0.1,1.1-0.1c0.6,0,1,0,1.1-0.1l2.1-0.2c0.1,0,0.2,0.1,0.2,0.2c0,0.3,0,0.6,0,1c0,0.5,0,0.8,0,1
			c0,1.8-0.1,3.2-0.1,4.2c0,0.2,0,0.2,0.1,0.2c0,0,0.2-0.1,0.6-0.4c0.5-0.3,0.9-0.6,1.3-0.8c0.6-0.3,1.2-0.4,1.8-0.4
			c1,0,1.8,0.3,2.5,0.8C80,113.8,80.4,114.5,80.4,115.5z"/>
		<path class="st0" d="M102.4,113.8c0,1.9-0.5,3.4-1.5,4.6c-1.1,1.2-2.5,1.9-4.4,1.9c-0.3,0-0.8,0-1.4-0.1s-1.1-0.1-1.4-0.1
			c-0.3,0-0.5,0.1-0.5,0.4c0,0.4,0,0.9,0.1,1.6s0.1,1.2,0.1,1.6c0,0.2-0.1,0.3-0.2,0.3c-0.5,0-1.2,0-2.1,0s-1.7,0-2.1,0
			c-0.2,0-0.3-0.1-0.3-0.3c0-0.9,0-2.2,0-3.9s0-3,0-3.9c0-2.5-0.1-5-0.3-7.7l0-0.2c0-0.1,0.1-0.2,0.4-0.3c0.6-0.1,2-0.1,4-0.1
			c1.2,0,2.4,0,3.5,0c1.9,0.1,3.3,0.6,4.5,1.7C101.8,110.5,102.4,112,102.4,113.8z M97.7,114c0-1.8-0.9-2.7-2.7-2.7
			c-1.3,0-1.9,0.1-2,0.2c-0.1,0.1-0.1,1-0.1,2.7c0,0.2,0,0.6,0,1.1s0,0.8,0,1.1c0,0.2,0.7,0.2,2.1,0.2
			C96.9,116.6,97.7,115.7,97.7,114z"/>
		<path class="st0" d="M115.7,118.2c0,0.6,0,1.5,0.1,2.7s0.1,2.1,0.1,2.7c0,0.3-0.1,0.5-0.4,0.5c-1,0.1-2.1,0.1-3.3,0.1
			c-0.1,0-0.2-0.2-0.3-0.7s-0.1-0.7-0.2-0.7c-0.1,0-0.1,0.1-0.2,0.2c-0.9,0.9-1.8,1.3-2.8,1.3c-1.5,0-2.8-0.6-3.8-1.8
			c-0.9-1.1-1.4-2.5-1.4-4c0-1.8,0.5-3.3,1.5-4.4c1-1.1,2.4-1.7,4.2-1.7c1.2,0,2.2,0.4,2.9,1.3c0,0,0.1,0.1,0.1,0.1
			c0.1,0,0.2-0.2,0.2-0.6s0.2-0.6,0.3-0.6c0.3,0,0.8,0.1,1.7,0.2c0.8,0.2,1.3,0.3,1.7,0.4c0.1,0,0.2,0.1,0.2,0.2c0,0,0,0.1,0,0.2
			C115.8,115.1,115.7,116.6,115.7,118.2z M111.9,118.2c0-0.7-0.2-1.2-0.6-1.6s-1-0.7-1.6-0.7s-1.2,0.2-1.6,0.6s-0.6,1-0.6,1.7
			c0,0.6,0.2,1.2,0.7,1.6s1,0.7,1.6,0.7c0.7,0,1.2-0.2,1.6-0.7S111.9,118.9,111.9,118.2z"/>
		<path class="st0" d="M129.6,115.7c0,1.5,0,2.4-0.1,2.8c-0.1,0.4-1,1.8-2.6,4.2c-0.3,0.4-0.9,1.3-1.9,2.7c-1.1,1.5-1.8,2.3-2,2.4
			c-0.2,0.1-1.4,0.2-3.6,0.2c-0.3,0-0.6,0-0.7-0.1c-0.1-0.3-0.2-0.7-0.4-1.1c-0.1-0.3-0.3-0.6-0.4-0.8c-0.2-0.4-0.3-0.7-0.3-0.8
			c0-0.1,0.1-0.2,0.2-0.2c2.2,0,3.3-0.5,3.3-1.5c0-0.1-0.5-0.9-1.6-2.3c-1.1-1.5-1.7-2.5-1.8-2.9c-0.1-0.2-0.1-1-0.1-2.4
			c0-0.3,0-0.7,0-1.3s0-1,0-1.3c0-0.2,0.1-0.3,0.4-0.3c0.4,0,1,0,1.8,0s1.4,0,1.8,0c0.2,0,0.2,0.1,0.2,0.4c0,0.2,0,0.5,0,1
			s0,0.8,0,1c0,1,0,1.7,0,2c0,0.3,0.3,0.8,0.7,1.5c0.5,0.8,0.8,1.2,1,1.2c0.2,0,0.5-0.4,0.9-1.1c0.4-0.7,0.6-1.2,0.6-1.5
			c0.1-0.7,0.1-1.4,0.1-2.2c0-0.2,0-0.5-0.1-1s-0.1-0.8-0.1-1c0-0.1,0.1-0.2,0.2-0.2c0.4,0,1,0,1.8,0s1.4,0,1.8,0
			c0.2,0,0.3,0.1,0.4,0.3C129.5,113.5,129.6,114.4,129.6,115.7z"/>
	</g>
</g>
</svg>
