<?xml version="1.0" encoding="utf-8"?>
<!-- Generator: Adobe Illustrator 16.0.0, SVG Export Plug-In . SVG Version: 6.00 Build 0)  -->
<!DOCTYPE svg PUBLIC "-//W3C//DTD SVG 1.1//EN" "http://www.w3.org/Graphics/SVG/1.1/DTD/svg11.dtd">
<svg version="1.1" id="Layer_1" xmlns="http://www.w3.org/2000/svg" xmlns:xlink="http://www.w3.org/1999/xlink" x="0px" y="0px"
	 width="280.675px" height="47.497px" viewBox="0 0 280.675 47.497" enable-background="new 0 0 280.675 47.497"
	 xml:space="preserve">
<polyline id="backgroundrect_2_" fill="none" points="0,47.497 0,0 280.675,0 280.675,47.497 "/>
<title>Layer 1</title>
<linearGradient id="svg_3_2_" gradientUnits="userSpaceOnUse" x1="140.8369" y1="0" x2="140.8369" y2="47.4971">
	<stop  offset="0" style="stop-color:#E9E9EA"/>
	<stop  offset="1" style="stop-color:#9FA1A4"/>
</linearGradient>
<path id="svg_3_3_" fill="url(#svg_3_2_)" d="M245.142,47.497L280.675,0H57.171L1,0.001l41.171,47.496H245.142z"/>
<g display="none">
	<rect id="backgroundrect_1_" x="430" y="-42.865" display="inline" fill="none" width="280.676" height="47.497"/>
	<polygon id="svg_1_1_" display="inline" fill="#BC1919" points="710.675,-33.59 678.609,-33.584 683.947,-42.808 	"/>
	<polygon id="svg_2_1_" display="inline" fill="#BC1919" points="430,-33.602 449.625,-42.865 458,-33.602 	"/>
	<linearGradient id="svg_3_4_" gradientUnits="userSpaceOnUse" x1="566.6851" y1="-42.8032" x2="566.6851" y2="4.6313">
		<stop  offset="0" style="stop-color:#930000"/>
		<stop  offset="1" style="stop-color:#541700"/>
	</linearGradient>
	<path id="svg_3_1_" display="inline" fill="url(#svg_3_4_)" d="M449.417-42.802l22.584,35.438
		c4.664,7.319,14.68,11.996,25.688,11.996h140.303c11.426,0,21.733-5.031,26.15-12.765l19.811-34.67L449.417-42.802L449.417-42.802z
		"/>
</g>
</svg>
