<?xml version="1.0" encoding="utf-8"?>
<!-- Generator: Adobe Illustrator 22.0.0, SVG Export Plug-In . SVG Version: 6.00 Build 0)  -->
<svg version="1.1" id="Layer_1" xmlns="http://www.w3.org/2000/svg" xmlns:xlink="http://www.w3.org/1999/xlink" x="0px" y="0px"
	 viewBox="0 0 24.6 24.6" style="enable-background:new 0 0 24.6 24.6;" xml:space="preserve">
<style type="text/css">
	.st0{fill:#790920;}
	.st1{fill:#F5F8F5;}
	.st2{fill:url(#SVGID_1_);}
	.st3{fill:#73EA8A;}
	.st4{fill:url(#SVGID_2_);}
	.st5{fill:#DDE3DF;}
	.st6{fill:url(#SVGID_3_);}
	.st7{fill:url(#SVGID_4_);}
	.st8{fill:url(#SVGID_5_);}
	.st9{fill:url(#SVGID_6_);}
	.st10{fill:url(#SVGID_7_);}
	.st11{fill:url(#SVGID_8_);}
	.st12{fill:url(#SVGID_9_);}
	.st13{fill:url(#SVGID_10_);}
	.st14{fill:url(#SVGID_11_);}
	.st15{fill:url(#SVGID_12_);}
	.st16{fill:url(#SVGID_13_);}
	.st17{fill:url(#SVGID_14_);}
	.st18{fill:url(#SVGID_15_);}
	.st19{fill:url(#SVGID_16_);}
	.st20{fill:url(#SVGID_17_);}
	.st21{fill:url(#SVGID_18_);}
	.st22{fill:#F7F8F7;}
	.st23{fill:url(#SVGID_19_);}
	.st24{fill:url(#SVGID_20_);}
	.st25{fill:url(#SVGID_21_);}
	.st26{fill:url(#SVGID_22_);}
	.st27{fill:url(#SVGID_23_);}
	.st28{fill:url(#SVGID_24_);}
	.st29{fill:url(#SVGID_25_);}
	.st30{fill:url(#SVGID_26_);}
	.st31{fill:url(#SVGID_27_);}
	.st32{fill:url(#SVGID_28_);}
	.st33{fill:url(#SVGID_29_);}
	.st34{fill:url(#SVGID_30_);}
	.st35{fill:url(#SVGID_31_);}
	.st36{fill:url(#SVGID_32_);}
</style>
<g>
	<path class="st0" d="M21.5,10.4c-0.1-0.6-0.3-1.2-0.6-1.8c-0.2-0.5-0.5-1-0.8-1.5c-0.3-0.5-0.7-1-1.2-1.4c-0.5-0.5-1-0.9-1.5-1.2
		c-0.5-0.3-1.1-0.6-1.6-0.9c-0.5-0.2-1.1-0.4-1.7-0.5c-0.1,0-0.3,0-0.4-0.1c0,0-0.1,0-0.1,0c-0.1,0-0.2,0-0.3,0c0,0-0.1,0-0.1,0
		c-0.1,0-0.2,0-0.4,0l0,0c-0.2,0-0.3,0-0.5,0c-0.2,0-0.3,0-0.5,0h0h0h0l0,0c-0.1,0-0.3,0-0.4,0c0,0-0.1,0-0.1,0c-0.1,0-0.2,0-0.3,0
		c0,0-0.1,0-0.1,0c-0.1,0-0.3,0-0.4,0.1C9.8,3.2,9.2,3.4,8.6,3.7c-0.5,0.2-1,0.5-1.5,0.8c-0.5,0.3-1,0.7-1.4,1.2
		c-0.5,0.5-0.9,1-1.2,1.5C4.1,7.7,3.8,8.2,3.6,8.8c-0.2,0.5-0.4,1.1-0.5,1.7c-0.1,0.6-0.2,1.2-0.2,1.8c0,0.7,0.1,1.3,0.2,1.9
		c0.1,0.6,0.3,1.2,0.6,1.8c0.2,0.5,0.5,1,0.8,1.5c0.3,0.5,0.7,1,1.2,1.4c0.5,0.5,1,0.9,1.5,1.2c0.5,0.3,1.1,0.6,1.6,0.9
		c0.5,0.2,1.1,0.4,1.7,0.5c0.1,0,0.3,0,0.4,0.1c0,0,0.1,0,0.1,0c0.1,0,0.2,0,0.3,0c0,0,0.1,0,0.1,0c0.1,0,0.2,0,0.4,0
		c0.2,0,0.3,0,0.5,0c0.7,0,1.3-0.1,1.9-0.2c0.6-0.1,1.2-0.3,1.8-0.6c0.5-0.2,1-0.5,1.5-0.8c0.5-0.3,1-0.7,1.4-1.2
		c0.5-0.5,0.9-1,1.2-1.5c0.3-0.5,0.6-1.1,0.9-1.6c0.2-0.5,0.4-1.1,0.5-1.7c0.1-0.6,0.2-1.2,0.2-1.8C21.7,11.7,21.7,11,21.5,10.4z
		 M13.9,3C13.9,3,13.8,3,13.9,3C13.8,3,13.9,3,13.9,3z M13.6,3c-0.1,0-0.1,0-0.2,0C13.4,3,13.5,3,13.6,3z M13.2,2.9
		c-0.1,0-0.2,0-0.4,0C13,2.9,13.1,2.9,13.2,2.9z M11.8,2.9c-0.1,0-0.3,0-0.4,0C11.5,2.9,11.7,2.9,11.8,2.9z M11.2,3
		c-0.1,0-0.1,0-0.2,0C11.1,3,11.1,3,11.2,3z M10.8,3C10.7,3,10.7,3,10.8,3C10.7,3,10.7,3,10.8,3z M10.8,21.6
		C10.8,21.6,10.8,21.6,10.8,21.6C10.8,21.6,10.8,21.6,10.8,21.6z M11.1,21.7c0.1,0,0.1,0,0.2,0C11.2,21.7,11.1,21.7,11.1,21.7z
		 M11.5,21.7c0.1,0,0.2,0,0.4,0C11.7,21.7,11.6,21.7,11.5,21.7z"/>
	<path class="st1" d="M3.2,16.2c-0.3-0.6-0.5-1.2-0.6-1.9c-0.1-0.3-0.1-0.5-0.1-0.8l-2.3,0.3c0,0.3,0.1,0.7,0.2,1
		c0.2,0.8,0.4,1.6,0.7,2.3c0.1,0.1,0.1,0.3,0.2,0.4l2.1-1C3.3,16.5,3.2,16.3,3.2,16.2z"/>
	<path class="st1" d="M22.6,19.1l-2-1.3c-0.4,0.6-0.8,1.1-1.3,1.6c-0.3,0.3-0.5,0.5-0.8,0.7l1.5,1.8c0.4-0.3,0.7-0.6,1-0.9
		C21.6,20.4,22.2,19.8,22.6,19.1z"/>
	<path class="st1" d="M8.6,21.6c-0.5-0.2-0.9-0.4-1.3-0.6l-1.2,2c0.5,0.3,1.1,0.6,1.6,0.8c0.6,0.3,1.3,0.5,2,0.6l0.5-2.3
		C9.7,21.9,9.1,21.8,8.6,21.6z"/>
	<path class="st1" d="M21.5,8.4c0.3,0.6,0.5,1.2,0.6,1.9c0.1,0.3,0.1,0.5,0.1,0.8l2.3-0.3c0-0.3-0.1-0.7-0.2-1
		C24.2,9,24,8.2,23.6,7.5c-0.1-0.1-0.1-0.3-0.2-0.4l-2.1,1C21.4,8.2,21.4,8.3,21.5,8.4z"/>
	<path class="st1" d="M16,3.1c0.5,0.2,0.9,0.4,1.3,0.6l1.2-2c-0.5-0.3-1.1-0.6-1.6-0.8c-0.6-0.3-1.3-0.5-2-0.6l-0.5,2.3
		C15,2.7,15.5,2.9,16,3.1z"/>
	<linearGradient id="SVGID_1_" gradientUnits="userSpaceOnUse" x1="0" y1="12.3202" x2="24.6406" y2="12.3202">
		<stop  offset="0" style="stop-color:#FAC05B"/>
		<stop  offset="4.347953e-02" style="stop-color:#F8BD56"/>
		<stop  offset="9.237916e-02" style="stop-color:#F3B349"/>
		<stop  offset="0.1437" style="stop-color:#EAA332"/>
		<stop  offset="0.1815" style="stop-color:#E2931D"/>
		<stop  offset="0.3326" style="stop-color:#FFEE8E"/>
		<stop  offset="0.4944" style="stop-color:#E7981C"/>
		<stop  offset="0.5462" style="stop-color:#E1931F"/>
		<stop  offset="0.6166" style="stop-color:#CF8626"/>
		<stop  offset="0.6662" style="stop-color:#BF792D"/>
		<stop  offset="0.8413" style="stop-color:#E2931D"/>
		<stop  offset="1" style="stop-color:#A86228"/>
	</linearGradient>
	<path class="st2" d="M24.5,10.8l-2.3,0.3v0c0-0.3-0.1-0.5-0.1-0.8c-0.1-0.6-0.3-1.3-0.6-1.9c0-0.1-0.1-0.2-0.1-0.3l0,0l2.1-1
		c-0.3-0.6-0.6-1.1-0.9-1.6c-0.5-0.7-1-1.3-1.5-1.9C20.4,3,19.8,2.5,19,2c-0.2-0.1-0.3-0.2-0.5-0.3l-1.2,2l0,0
		c-0.4-0.2-0.9-0.5-1.3-0.6c-0.5-0.2-1.1-0.4-1.6-0.5l0.5-2.3c-0.1,0-0.1,0-0.2,0C14,0.1,13.1,0,12.3,0c-0.9,0-1.7,0.1-2.5,0.3
		C9,0.4,8.2,0.7,7.5,1c-0.7,0.3-1.4,0.7-2,1.1C5.2,2.3,4.9,2.5,4.6,2.7l1.5,1.8C5.8,4.8,5.5,5,5.3,5.3C4.8,5.8,4.4,6.3,4,6.9l0,0
		L2,5.6l0,0C1.6,6.3,1.2,7,0.9,7.7C0.6,8.4,0.4,9.2,0.2,9.9C0.1,10.7,0,11.5,0,12.3c0,0.5,0,1,0.1,1.5l2.3-0.3l0,0
		c0,0.3,0.1,0.5,0.1,0.8c0.1,0.6,0.3,1.3,0.6,1.9c0,0.1,0.1,0.2,0.1,0.3l-2.1,1c0.3,0.6,0.6,1.1,0.9,1.6c0.5,0.7,1,1.3,1.5,1.9
		c0.6,0.6,1.3,1.1,2,1.6c0.2,0.1,0.3,0.2,0.5,0.3l1.2-2l0,0c0.4,0.2,0.9,0.5,1.3,0.6c0.6,0.2,1.1,0.4,1.8,0.5c0,0-0.1,0-0.1,0
		l-0.5,2.3c0.1,0,0.1,0,0.2,0c0.8,0.2,1.6,0.2,2.4,0.2c0.9,0,1.7-0.1,2.5-0.3c0.8-0.2,1.6-0.4,2.3-0.7c0.7-0.3,1.4-0.7,2-1.1
		c0.3-0.2,0.6-0.4,0.9-0.6l-1.5-1.8c0.3-0.2,0.6-0.5,0.8-0.7c0.5-0.5,0.9-1,1.3-1.6l2,1.3l0,0c0.4-0.7,0.8-1.4,1.1-2.1
		c0.3-0.7,0.5-1.4,0.6-2.2c0.2-0.8,0.2-1.6,0.2-2.4C24.6,11.8,24.6,11.3,24.5,10.8z M21.2,7.8c0,0,0-0.1-0.1-0.1
		C21.2,7.7,21.2,7.8,21.2,7.8z M20.8,7.1c-0.1-0.1-0.1-0.2-0.2-0.3C20.7,6.9,20.7,7,20.8,7.1z M21,7.5c0-0.1-0.1-0.1-0.1-0.2
		C20.9,7.4,21,7.4,21,7.5z M6.8,4C6.7,4.1,6.6,4.2,6.4,4.3C6.6,4.2,6.7,4.1,6.8,4z M2.4,13.2L2.4,13.2L2.4,13.2z M2.4,12.6
		C2.4,12.6,2.4,12.7,2.4,12.6C2.4,12.7,2.4,12.6,2.4,12.6z M2.4,12.9C2.4,12.9,2.4,13,2.4,12.9C2.4,13,2.4,12.9,2.4,12.9z M3.5,16.8
		c0,0,0,0.1,0.1,0.1C3.5,16.9,3.5,16.9,3.5,16.8z M3.8,17.5C3.9,17.6,4,17.7,4,17.8C4,17.7,3.9,17.6,3.8,17.5z M3.6,17.2
		c0,0.1,0.1,0.1,0.1,0.2C3.7,17.3,3.7,17.2,3.6,17.2z M17.8,20.6c0.1-0.1,0.2-0.2,0.4-0.3C18.1,20.4,18,20.5,17.8,20.6z M19.6,17
		c-0.3,0.5-0.7,1-1.1,1.4c-0.4,0.4-0.8,0.8-1.3,1.1c-0.4,0.3-0.9,0.5-1.4,0.8c-0.5,0.2-1.1,0.4-1.6,0.5c-0.6,0.1-1.2,0.2-1.8,0.2
		c-0.6,0-1.1-0.1-1.7-0.2c-0.5-0.1-1-0.3-1.5-0.5c-0.5-0.2-1-0.5-1.5-0.8c-0.5-0.3-1-0.7-1.4-1.1c-0.4-0.4-0.8-0.8-1.1-1.3
		c-0.3-0.4-0.5-0.9-0.8-1.4c-0.2-0.5-0.4-1.1-0.5-1.6c-0.1-0.6-0.2-1.2-0.2-1.8c0-0.6,0.1-1.1,0.2-1.7c0.1-0.5,0.3-1,0.5-1.5
		c0.2-0.5,0.5-1,0.8-1.5c0.3-0.5,0.7-1,1.1-1.4C6.6,5.8,7,5.4,7.5,5.1C8,4.8,8.4,4.6,8.9,4.4C9.4,4.1,10,4,10.5,3.9
		c0.6-0.1,1.2-0.2,1.8-0.2c0.6,0,1.1,0.1,1.7,0.2c0.5,0.1,1,0.3,1.5,0.5c0.5,0.2,1,0.5,1.5,0.8c0.5,0.3,1,0.7,1.4,1.1
		c0.4,0.4,0.8,0.8,1.1,1.3c0.3,0.4,0.5,0.9,0.8,1.4c0.2,0.5,0.4,1.1,0.5,1.6c0.1,0.6,0.2,1.2,0.2,1.8c0,0.6-0.1,1.1-0.2,1.7
		c-0.1,0.5-0.3,1-0.5,1.5C20.1,16.1,19.9,16.6,19.6,17z M22.2,11.4L22.2,11.4L22.2,11.4z M22.3,11.7C22.3,11.7,22.3,11.7,22.3,11.7
		C22.3,11.7,22.3,11.7,22.3,11.7z M22.3,12C22.3,12,22.3,12,22.3,12C22.3,12,22.3,12,22.3,12z"/>
	<path class="st1" d="M5.3,5.3C5.5,5,5.8,4.8,6.1,4.6L4.6,2.7C4.3,3,3.9,3.3,3.6,3.6C3,4.2,2.5,4.9,2,5.6l2,1.3
		C4.4,6.3,4.8,5.8,5.3,5.3z"/>
	<path class="st3" d="M20.1,10.7c-0.1-0.5-0.3-1-0.5-1.5c-0.2-0.5-0.4-0.9-0.7-1.3c-0.3-0.4-0.6-0.8-1-1.2c-0.4-0.4-0.8-0.7-1.3-1
		c-0.4-0.3-0.9-0.5-1.4-0.7c-0.4-0.2-0.9-0.3-1.4-0.4c-0.5-0.1-1-0.2-1.6-0.2c-0.6,0-1.1,0.1-1.6,0.2c-0.5,0.1-1,0.3-1.5,0.5
		C8.7,5.2,8.3,5.4,7.9,5.7C7.5,6,7.1,6.3,6.7,6.7C6.3,7.1,6,7.5,5.7,8C5.4,8.4,5.1,8.9,4.9,9.4c-0.2,0.4-0.3,0.9-0.4,1.4
		c-0.1,0.5-0.2,1-0.2,1.6c0,0.6,0.1,1.1,0.2,1.6c0.1,0.5,0.3,1,0.5,1.5c0.2,0.5,0.4,0.9,0.7,1.3c0.3,0.4,0.6,0.8,1,1.2
		c0.4,0.4,0.8,0.7,1.3,1c0.4,0.3,0.9,0.5,1.4,0.7c0.4,0.2,0.9,0.3,1.4,0.4c0.4,0.1,0.8,0.1,1.2,0.1c-0.4,0-0.8-0.1-1.1-0.1
		c-0.5-0.1-0.9-0.2-1.4-0.4C8.9,19.5,8.5,19.3,8,19c-0.5-0.3-0.9-0.6-1.3-1c-0.4-0.4-0.7-0.8-1-1.2c-0.3-0.4-0.5-0.8-0.7-1.3
		c-0.2-0.5-0.4-1-0.5-1.5c-0.1-0.5-0.2-1.1-0.2-1.6c0-0.5,0.1-1,0.2-1.5C4.7,10.4,4.8,9.9,5,9.5C5.2,9,5.5,8.6,5.7,8.1
		c0.3-0.5,0.6-0.9,1-1.3c0.4-0.4,0.8-0.7,1.2-1c0.4-0.3,0.8-0.5,1.3-0.7c0.5-0.2,1-0.4,1.5-0.5c0.5-0.1,1.1-0.2,1.6-0.2
		c0.5,0,1,0.1,1.5,0.2c0.5,0.1,0.9,0.2,1.4,0.4c0.5,0.2,0.9,0.4,1.4,0.7c0.5,0.3,0.9,0.6,1.3,1c0.4,0.4,0.7,0.8,1,1.2
		c0.3,0.4,0.5,0.8,0.7,1.3c0.2,0.5,0.4,1,0.5,1.5c0.1,0.5,0.2,1.1,0.2,1.6c0,0.5-0.1,1-0.2,1.5c-0.1,0.5-0.2,0.9-0.4,1.4
		c-0.2,0.5-0.4,0.9-0.7,1.4c-0.3,0.5-0.6,0.9-1,1.3c-0.4,0.4-0.8,0.7-1.2,1c-0.4,0.3-0.8,0.5-1.3,0.7c-0.5,0.2-1,0.4-1.5,0.5
		c-0.5,0.1-1.1,0.2-1.6,0.2c0.6,0,1.1-0.1,1.6-0.2c0.5-0.1,1-0.3,1.5-0.5c0.5-0.2,0.9-0.4,1.3-0.7c0.4-0.3,0.8-0.6,1.2-1
		c0.4-0.4,0.7-0.8,1-1.3c0.3-0.4,0.5-0.9,0.7-1.4c0.2-0.4,0.3-0.9,0.4-1.4c0.1-0.5,0.2-1,0.2-1.6C20.3,11.8,20.2,11.2,20.1,10.7z"/>
	<linearGradient id="SVGID_2_" gradientUnits="userSpaceOnUse" x1="4.2856" y1="8.3898" x2="19.2188" y2="15.6948">
		<stop  offset="0" style="stop-color:#A86228"/>
		<stop  offset="0.1587" style="stop-color:#E2931D"/>
		<stop  offset="0.3284" style="stop-color:#BF792D"/>
		<stop  offset="0.3796" style="stop-color:#CF8626"/>
		<stop  offset="0.4521" style="stop-color:#E1931F"/>
		<stop  offset="0.5056" style="stop-color:#E7981C"/>
		<stop  offset="0.6674" style="stop-color:#FFEE8E"/>
		<stop  offset="0.8185" style="stop-color:#E2931D"/>
		<stop  offset="0.8563" style="stop-color:#EAA332"/>
		<stop  offset="0.9076" style="stop-color:#F3B349"/>
		<stop  offset="0.9565" style="stop-color:#F8BD56"/>
		<stop  offset="1" style="stop-color:#FAC05B"/>
	</linearGradient>
	<path class="st4" d="M4.9,7.5C4.6,8,4.4,8.5,4.1,9c-0.2,0.5-0.4,1-0.5,1.6c-0.1,0.6-0.2,1.1-0.2,1.7c0,0.6,0.1,1.2,0.2,1.8
		c0.1,0.6,0.3,1.1,0.5,1.6c0.2,0.5,0.5,1,0.8,1.4c0.3,0.5,0.7,0.9,1.1,1.3C6.5,19,7,19.4,7.5,19.7C8,20,8.5,20.3,9,20.5
		c0.5,0.2,1,0.4,1.6,0.5c0.6,0.1,1.1,0.2,1.7,0.2c0.6,0,1.2-0.1,1.8-0.2c0.6-0.1,1.1-0.3,1.6-0.5c0.5-0.2,1-0.5,1.4-0.8
		c0.5-0.3,0.9-0.7,1.3-1.1c0.4-0.4,0.8-0.9,1.1-1.4c0.3-0.5,0.6-1,0.8-1.5c0.2-0.5,0.4-1,0.5-1.6c0.1-0.6,0.2-1.1,0.2-1.7
		c0-0.6-0.1-1.2-0.2-1.8c-0.1-0.6-0.3-1.1-0.5-1.6c-0.2-0.5-0.5-1-0.8-1.4C19.3,7,19,6.5,18.5,6.1c-0.4-0.4-0.9-0.8-1.4-1.1
		c-0.5-0.3-1-0.6-1.5-0.8c-0.5-0.2-1-0.4-1.6-0.5c-0.6-0.1-1.1-0.2-1.7-0.2c-0.6,0-1.2,0.1-1.8,0.2C9.9,3.8,9.4,4,8.9,4.2
		C8.4,4.4,7.9,4.7,7.4,5C7,5.3,6.5,5.7,6.1,6.1C5.7,6.5,5.3,7,4.9,7.5z M9.1,4.9c0.5-0.2,1-0.4,1.5-0.5c0.5-0.1,1.1-0.2,1.7-0.2
		c0.5,0,1.1,0.1,1.6,0.2c0.5,0.1,1,0.2,1.4,0.4c0.5,0.2,1,0.4,1.4,0.7c0.5,0.3,0.9,0.7,1.3,1.1c0.4,0.4,0.7,0.8,1,1.2
		c0.3,0.4,0.5,0.9,0.7,1.3c0.2,0.5,0.4,1,0.5,1.5c0.1,0.5,0.2,1.1,0.2,1.7c0,0.5-0.1,1.1-0.2,1.6c-0.1,0.5-0.2,1-0.4,1.4
		c-0.2,0.5-0.4,1-0.7,1.4c-0.3,0.5-0.7,0.9-1.1,1.3c-0.4,0.4-0.8,0.7-1.2,1c-0.4,0.3-0.9,0.5-1.3,0.7c-0.5,0.2-1,0.4-1.5,0.5
		c-0.5,0.1-1.1,0.2-1.7,0.2c-0.5,0-1.1-0.1-1.6-0.2c-0.5-0.1-1-0.2-1.4-0.4c-0.5-0.2-1-0.4-1.4-0.7C7.4,18.8,7,18.4,6.6,18
		c-0.4-0.4-0.7-0.8-1-1.2c-0.3-0.4-0.5-0.9-0.7-1.3c-0.2-0.5-0.4-1-0.5-1.5c-0.1-0.5-0.2-1.1-0.2-1.7c0-0.5,0.1-1.1,0.2-1.6
		c0.1-0.5,0.2-1,0.4-1.4c0.2-0.5,0.4-1,0.7-1.4C5.8,7.4,6.2,7,6.6,6.6c0.4-0.4,0.8-0.7,1.2-1C8.2,5.3,8.7,5.1,9.1,4.9z"/>
	<path class="st5" d="M19.6,9.2l0.6-0.3c-0.2-0.5-0.5-1-0.8-1.4l-0.6,0.4C19.2,8.3,19.4,8.7,19.6,9.2z"/>
	<path class="st5" d="M17.9,17.9l0.5,0.5c0.4-0.4,0.8-0.9,1.1-1.4L19,16.7C18.7,17.1,18.3,17.6,17.9,17.9z"/>
	<path class="st5" d="M4.9,9.4L4.3,9.1c-0.2,0.5-0.4,1-0.5,1.5l0.7,0.1C4.6,10.3,4.8,9.8,4.9,9.4z"/>
	<path class="st5" d="M4.4,12.3H3.7c0,0.6,0.1,1.2,0.2,1.8L4.5,14C4.4,13.4,4.4,12.9,4.4,12.3z"/>
	<path class="st5" d="M5,15.4l-0.6,0.3c0.2,0.5,0.5,1,0.8,1.4l0.6-0.4C5.4,16.3,5.2,15.9,5,15.4z"/>
	<path class="st5" d="M6.7,17.9l-0.5,0.5c0.4,0.4,0.9,0.8,1.4,1.1L8,19C7.5,18.7,7.1,18.3,6.7,17.9z"/>
	<path class="st5" d="M12.3,4.4V3.7c-0.6,0-1.2,0.1-1.8,0.2l0.1,0.7C11.2,4.4,11.8,4.4,12.3,4.4z"/>
	<path class="st5" d="M9.2,5L8.9,4.4C8.4,4.6,8,4.8,7.5,5.1l0.4,0.6C8.3,5.4,8.7,5.2,9.2,5z"/>
	<path class="st5" d="M6.7,6.7L6.2,6.2C5.8,6.6,5.4,7.1,5.1,7.6L5.7,8C6,7.5,6.3,7.1,6.7,6.7z"/>
	<path class="st5" d="M20.1,10.7c0.1,0.5,0.2,1.1,0.2,1.6H21c0-0.6-0.1-1.2-0.2-1.8L20.1,10.7z"/>
	<path class="st5" d="M17.9,6.7l0.5-0.5C18,5.8,17.5,5.4,17,5.1l-0.4,0.6C17.1,6,17.6,6.3,17.9,6.7z"/>
	<path class="st5" d="M19.7,15.3l0.6,0.3c0.2-0.5,0.4-1,0.5-1.5l-0.7-0.1C20,14.4,19.9,14.8,19.7,15.3z"/>
	<path class="st5" d="M9.4,19.7l-0.3,0.6c0.5,0.2,1,0.4,1.5,0.5l0.1-0.7C10.3,20,9.8,19.9,9.4,19.7z"/>
	<path class="st5" d="M15.3,4.9l0.3-0.6c-0.5-0.2-1-0.4-1.5-0.5l-0.1,0.7C14.4,4.6,14.8,4.8,15.3,4.9z"/>
	<path class="st5" d="M12.3,20.3V21c0.6,0,1.2-0.1,1.8-0.2L14,20.1C13.4,20.2,12.9,20.3,12.3,20.3z"/>
	<path class="st5" d="M15.4,19.6l0.3,0.6c0.5-0.2,1-0.5,1.4-0.8l-0.4-0.6C16.3,19.2,15.9,19.4,15.4,19.6z"/>
	<g>
		<linearGradient id="SVGID_3_" gradientUnits="userSpaceOnUse" x1="18.7279" y1="4.0339" x2="18.7279" y2="20.8485">
			<stop  offset="0" style="stop-color:#FAC05B"/>
			<stop  offset="4.347953e-02" style="stop-color:#F8BD56"/>
			<stop  offset="9.237916e-02" style="stop-color:#F3B349"/>
			<stop  offset="0.1437" style="stop-color:#EAA332"/>
			<stop  offset="0.1815" style="stop-color:#E2931D"/>
			<stop  offset="0.3326" style="stop-color:#FFEE8E"/>
			<stop  offset="0.4944" style="stop-color:#E7981C"/>
			<stop  offset="0.5462" style="stop-color:#E1931F"/>
			<stop  offset="0.6166" style="stop-color:#CF8626"/>
			<stop  offset="0.6662" style="stop-color:#BF792D"/>
			<stop  offset="0.8413" style="stop-color:#E2931D"/>
			<stop  offset="1" style="stop-color:#A86228"/>
		</linearGradient>
		<path class="st6" d="M18.9,7.9l0.6-0.4c-0.3-0.5-0.7-0.9-1.1-1.3l-0.5,0.5C18.3,7.1,18.6,7.5,18.9,7.9z"/>
		<linearGradient id="SVGID_4_" gradientUnits="userSpaceOnUse" x1="20.2095" y1="4.0339" x2="20.2095" y2="20.8485">
			<stop  offset="0" style="stop-color:#FAC05B"/>
			<stop  offset="4.347953e-02" style="stop-color:#F8BD56"/>
			<stop  offset="9.237916e-02" style="stop-color:#F3B349"/>
			<stop  offset="0.1437" style="stop-color:#EAA332"/>
			<stop  offset="0.1815" style="stop-color:#E2931D"/>
			<stop  offset="0.3326" style="stop-color:#FFEE8E"/>
			<stop  offset="0.4944" style="stop-color:#E7981C"/>
			<stop  offset="0.5462" style="stop-color:#E1931F"/>
			<stop  offset="0.6166" style="stop-color:#CF8626"/>
			<stop  offset="0.6662" style="stop-color:#BF792D"/>
			<stop  offset="0.8413" style="stop-color:#E2931D"/>
			<stop  offset="1" style="stop-color:#A86228"/>
		</linearGradient>
		<path class="st7" d="M20.1,10.7l0.7-0.1c-0.1-0.6-0.3-1.1-0.5-1.6l-0.6,0.3C19.8,9.7,20,10.2,20.1,10.7z"/>
		<linearGradient id="SVGID_5_" gradientUnits="userSpaceOnUse" x1="4.4311" y1="4.0339" x2="4.4311" y2="20.8485">
			<stop  offset="0" style="stop-color:#FAC05B"/>
			<stop  offset="4.347953e-02" style="stop-color:#F8BD56"/>
			<stop  offset="9.237916e-02" style="stop-color:#F3B349"/>
			<stop  offset="0.1437" style="stop-color:#EAA332"/>
			<stop  offset="0.1815" style="stop-color:#E2931D"/>
			<stop  offset="0.3326" style="stop-color:#FFEE8E"/>
			<stop  offset="0.4944" style="stop-color:#E7981C"/>
			<stop  offset="0.5462" style="stop-color:#E1931F"/>
			<stop  offset="0.6166" style="stop-color:#CF8626"/>
			<stop  offset="0.6662" style="stop-color:#BF792D"/>
			<stop  offset="0.8413" style="stop-color:#E2931D"/>
			<stop  offset="1" style="stop-color:#A86228"/>
		</linearGradient>
		<path class="st8" d="M4.5,14l-0.7,0.1c0.1,0.6,0.3,1.1,0.5,1.6L5,15.4C4.8,15,4.6,14.5,4.5,14z"/>
		<linearGradient id="SVGID_6_" gradientUnits="userSpaceOnUse" x1="4.0939" y1="4.0339" x2="4.0939" y2="20.8485">
			<stop  offset="0" style="stop-color:#FAC05B"/>
			<stop  offset="4.347953e-02" style="stop-color:#F8BD56"/>
			<stop  offset="9.237916e-02" style="stop-color:#F3B349"/>
			<stop  offset="0.1437" style="stop-color:#EAA332"/>
			<stop  offset="0.1815" style="stop-color:#E2931D"/>
			<stop  offset="0.3326" style="stop-color:#FFEE8E"/>
			<stop  offset="0.4944" style="stop-color:#E7981C"/>
			<stop  offset="0.5462" style="stop-color:#E1931F"/>
			<stop  offset="0.6166" style="stop-color:#CF8626"/>
			<stop  offset="0.6662" style="stop-color:#BF792D"/>
			<stop  offset="0.8413" style="stop-color:#E2931D"/>
			<stop  offset="1" style="stop-color:#A86228"/>
		</linearGradient>
		<path class="st9" d="M4.5,10.8l-0.7-0.1c-0.1,0.5-0.2,1.1-0.2,1.7h0.7C4.4,11.8,4.4,11.3,4.5,10.8z"/>
		<linearGradient id="SVGID_7_" gradientUnits="userSpaceOnUse" x1="5.9127" y1="4.0339" x2="5.9127" y2="20.8485">
			<stop  offset="0" style="stop-color:#FAC05B"/>
			<stop  offset="4.347953e-02" style="stop-color:#F8BD56"/>
			<stop  offset="9.237916e-02" style="stop-color:#F3B349"/>
			<stop  offset="0.1437" style="stop-color:#EAA332"/>
			<stop  offset="0.1815" style="stop-color:#E2931D"/>
			<stop  offset="0.3326" style="stop-color:#FFEE8E"/>
			<stop  offset="0.4944" style="stop-color:#E7981C"/>
			<stop  offset="0.5462" style="stop-color:#E1931F"/>
			<stop  offset="0.6166" style="stop-color:#CF8626"/>
			<stop  offset="0.6662" style="stop-color:#BF792D"/>
			<stop  offset="0.8413" style="stop-color:#E2931D"/>
			<stop  offset="1" style="stop-color:#A86228"/>
		</linearGradient>
		<path class="st10" d="M5.7,16.7l-0.6,0.4c0.3,0.5,0.7,0.9,1.1,1.3l0.5-0.5C6.3,17.6,6,17.2,5.7,16.7z"/>
		<linearGradient id="SVGID_8_" gradientUnits="userSpaceOnUse" x1="8.48" y1="4.0339" x2="8.48" y2="20.8485">
			<stop  offset="0" style="stop-color:#FAC05B"/>
			<stop  offset="4.347953e-02" style="stop-color:#F8BD56"/>
			<stop  offset="9.237916e-02" style="stop-color:#F3B349"/>
			<stop  offset="0.1437" style="stop-color:#EAA332"/>
			<stop  offset="0.1815" style="stop-color:#E2931D"/>
			<stop  offset="0.3326" style="stop-color:#FFEE8E"/>
			<stop  offset="0.4944" style="stop-color:#E7981C"/>
			<stop  offset="0.5462" style="stop-color:#E1931F"/>
			<stop  offset="0.6166" style="stop-color:#CF8626"/>
			<stop  offset="0.6662" style="stop-color:#BF792D"/>
			<stop  offset="0.8413" style="stop-color:#E2931D"/>
			<stop  offset="1" style="stop-color:#A86228"/>
		</linearGradient>
		<path class="st11" d="M8,19l-0.4,0.6c0.5,0.3,1,0.6,1.5,0.8l0.3-0.6C8.9,19.5,8.4,19.3,8,19z"/>
		<linearGradient id="SVGID_9_" gradientUnits="userSpaceOnUse" x1="4.9757" y1="4.0339" x2="4.9757" y2="20.8485">
			<stop  offset="0" style="stop-color:#FAC05B"/>
			<stop  offset="4.347953e-02" style="stop-color:#F8BD56"/>
			<stop  offset="9.237916e-02" style="stop-color:#F3B349"/>
			<stop  offset="0.1437" style="stop-color:#EAA332"/>
			<stop  offset="0.1815" style="stop-color:#E2931D"/>
			<stop  offset="0.3326" style="stop-color:#FFEE8E"/>
			<stop  offset="0.4944" style="stop-color:#E7981C"/>
			<stop  offset="0.5462" style="stop-color:#E1931F"/>
			<stop  offset="0.6166" style="stop-color:#CF8626"/>
			<stop  offset="0.6662" style="stop-color:#BF792D"/>
			<stop  offset="0.8413" style="stop-color:#E2931D"/>
			<stop  offset="1" style="stop-color:#A86228"/>
		</linearGradient>
		<path class="st12" d="M5.7,8L5.1,7.6c-0.3,0.5-0.6,1-0.8,1.5l0.6,0.3C5.1,8.9,5.4,8.4,5.7,8z"/>
		<linearGradient id="SVGID_10_" gradientUnits="userSpaceOnUse" x1="9.7985" y1="4.0339" x2="9.7985" y2="20.8485">
			<stop  offset="0" style="stop-color:#FAC05B"/>
			<stop  offset="4.347953e-02" style="stop-color:#F8BD56"/>
			<stop  offset="9.237916e-02" style="stop-color:#F3B349"/>
			<stop  offset="0.1437" style="stop-color:#EAA332"/>
			<stop  offset="0.1815" style="stop-color:#E2931D"/>
			<stop  offset="0.3326" style="stop-color:#FFEE8E"/>
			<stop  offset="0.4944" style="stop-color:#E7981C"/>
			<stop  offset="0.5462" style="stop-color:#E1931F"/>
			<stop  offset="0.6166" style="stop-color:#CF8626"/>
			<stop  offset="0.6662" style="stop-color:#BF792D"/>
			<stop  offset="0.8413" style="stop-color:#E2931D"/>
			<stop  offset="1" style="stop-color:#A86228"/>
		</linearGradient>
		<path class="st13" d="M10.7,4.5l-0.1-0.7C10,4,9.4,4.1,8.9,4.4L9.2,5C9.7,4.8,10.2,4.6,10.7,4.5z"/>
		<linearGradient id="SVGID_11_" gradientUnits="userSpaceOnUse" x1="7.0554" y1="4.0339" x2="7.0554" y2="20.8485">
			<stop  offset="0" style="stop-color:#FAC05B"/>
			<stop  offset="4.347953e-02" style="stop-color:#F8BD56"/>
			<stop  offset="9.237916e-02" style="stop-color:#F3B349"/>
			<stop  offset="0.1437" style="stop-color:#EAA332"/>
			<stop  offset="0.1815" style="stop-color:#E2931D"/>
			<stop  offset="0.3326" style="stop-color:#FFEE8E"/>
			<stop  offset="0.4944" style="stop-color:#E7981C"/>
			<stop  offset="0.5462" style="stop-color:#E1931F"/>
			<stop  offset="0.6166" style="stop-color:#CF8626"/>
			<stop  offset="0.6662" style="stop-color:#BF792D"/>
			<stop  offset="0.8413" style="stop-color:#E2931D"/>
			<stop  offset="1" style="stop-color:#A86228"/>
		</linearGradient>
		<path class="st14" d="M7.9,5.7L7.5,5.1C7,5.4,6.6,5.8,6.2,6.2l0.5,0.5C7.1,6.3,7.5,6,7.9,5.7z"/>
		<linearGradient id="SVGID_12_" gradientUnits="userSpaceOnUse" x1="20.5467" y1="4.0339" x2="20.5467" y2="20.8485">
			<stop  offset="0" style="stop-color:#FAC05B"/>
			<stop  offset="4.347953e-02" style="stop-color:#F8BD56"/>
			<stop  offset="9.237916e-02" style="stop-color:#F3B349"/>
			<stop  offset="0.1437" style="stop-color:#EAA332"/>
			<stop  offset="0.1815" style="stop-color:#E2931D"/>
			<stop  offset="0.3326" style="stop-color:#FFEE8E"/>
			<stop  offset="0.4944" style="stop-color:#E7981C"/>
			<stop  offset="0.5462" style="stop-color:#E1931F"/>
			<stop  offset="0.6166" style="stop-color:#CF8626"/>
			<stop  offset="0.6662" style="stop-color:#BF792D"/>
			<stop  offset="0.8413" style="stop-color:#E2931D"/>
			<stop  offset="1" style="stop-color:#A86228"/>
		</linearGradient>
		<path class="st15" d="M20.1,13.9l0.7,0.1c0.1-0.5,0.2-1.1,0.2-1.7h-0.7C20.3,12.9,20.2,13.4,20.1,13.9z"/>
		<linearGradient id="SVGID_13_" gradientUnits="userSpaceOnUse" x1="16.1605" y1="4.0339" x2="16.1605" y2="20.8485">
			<stop  offset="0" style="stop-color:#FAC05B"/>
			<stop  offset="4.347953e-02" style="stop-color:#F8BD56"/>
			<stop  offset="9.237916e-02" style="stop-color:#F3B349"/>
			<stop  offset="0.1437" style="stop-color:#EAA332"/>
			<stop  offset="0.1815" style="stop-color:#E2931D"/>
			<stop  offset="0.3326" style="stop-color:#FFEE8E"/>
			<stop  offset="0.4944" style="stop-color:#E7981C"/>
			<stop  offset="0.5462" style="stop-color:#E1931F"/>
			<stop  offset="0.6166" style="stop-color:#CF8626"/>
			<stop  offset="0.6662" style="stop-color:#BF792D"/>
			<stop  offset="0.8413" style="stop-color:#E2931D"/>
			<stop  offset="1" style="stop-color:#A86228"/>
		</linearGradient>
		<path class="st16" d="M16.7,5.7L17,5.1c-0.5-0.3-1-0.6-1.5-0.8l-0.3,0.6C15.8,5.1,16.2,5.4,16.7,5.7z"/>
		<linearGradient id="SVGID_14_" gradientUnits="userSpaceOnUse" x1="19.6647" y1="4.0339" x2="19.6647" y2="20.8485">
			<stop  offset="0" style="stop-color:#FAC05B"/>
			<stop  offset="4.347953e-02" style="stop-color:#F8BD56"/>
			<stop  offset="9.237916e-02" style="stop-color:#F3B349"/>
			<stop  offset="0.1437" style="stop-color:#EAA332"/>
			<stop  offset="0.1815" style="stop-color:#E2931D"/>
			<stop  offset="0.3326" style="stop-color:#FFEE8E"/>
			<stop  offset="0.4944" style="stop-color:#E7981C"/>
			<stop  offset="0.5462" style="stop-color:#E1931F"/>
			<stop  offset="0.6166" style="stop-color:#CF8626"/>
			<stop  offset="0.6662" style="stop-color:#BF792D"/>
			<stop  offset="0.8413" style="stop-color:#E2931D"/>
			<stop  offset="1" style="stop-color:#A86228"/>
		</linearGradient>
		<path class="st17" d="M19,16.7l0.6,0.4c0.3-0.5,0.6-1,0.8-1.5l-0.6-0.3C19.5,15.8,19.3,16.2,19,16.7z"/>
		<linearGradient id="SVGID_15_" gradientUnits="userSpaceOnUse" x1="13.1661" y1="4.0339" x2="13.1661" y2="20.8485">
			<stop  offset="0" style="stop-color:#FAC05B"/>
			<stop  offset="4.347953e-02" style="stop-color:#F8BD56"/>
			<stop  offset="9.237916e-02" style="stop-color:#F3B349"/>
			<stop  offset="0.1437" style="stop-color:#EAA332"/>
			<stop  offset="0.1815" style="stop-color:#E2931D"/>
			<stop  offset="0.3326" style="stop-color:#FFEE8E"/>
			<stop  offset="0.4944" style="stop-color:#E7981C"/>
			<stop  offset="0.5462" style="stop-color:#E1931F"/>
			<stop  offset="0.6166" style="stop-color:#CF8626"/>
			<stop  offset="0.6662" style="stop-color:#BF792D"/>
			<stop  offset="0.8413" style="stop-color:#E2931D"/>
			<stop  offset="1" style="stop-color:#A86228"/>
		</linearGradient>
		<path class="st18" d="M13.9,4.5L14,3.8c-0.5-0.1-1.1-0.2-1.7-0.2v0.7C12.9,4.4,13.4,4.4,13.9,4.5z"/>
		<linearGradient id="SVGID_16_" gradientUnits="userSpaceOnUse" x1="11.4744" y1="4.0339" x2="11.4744" y2="20.8485">
			<stop  offset="0" style="stop-color:#FAC05B"/>
			<stop  offset="4.347953e-02" style="stop-color:#F8BD56"/>
			<stop  offset="9.237916e-02" style="stop-color:#F3B349"/>
			<stop  offset="0.1437" style="stop-color:#EAA332"/>
			<stop  offset="0.1815" style="stop-color:#E2931D"/>
			<stop  offset="0.3326" style="stop-color:#FFEE8E"/>
			<stop  offset="0.4944" style="stop-color:#E7981C"/>
			<stop  offset="0.5462" style="stop-color:#E1931F"/>
			<stop  offset="0.6166" style="stop-color:#CF8626"/>
			<stop  offset="0.6662" style="stop-color:#BF792D"/>
			<stop  offset="0.8413" style="stop-color:#E2931D"/>
			<stop  offset="1" style="stop-color:#A86228"/>
		</linearGradient>
		<path class="st19" d="M10.8,20.1l-0.1,0.7c0.5,0.1,1.1,0.2,1.7,0.2v-0.7C11.8,20.3,11.3,20.2,10.8,20.1z"/>
		<linearGradient id="SVGID_17_" gradientUnits="userSpaceOnUse" x1="14.8417" y1="4.0339" x2="14.8417" y2="20.8485">
			<stop  offset="0" style="stop-color:#FAC05B"/>
			<stop  offset="4.347953e-02" style="stop-color:#F8BD56"/>
			<stop  offset="9.237916e-02" style="stop-color:#F3B349"/>
			<stop  offset="0.1437" style="stop-color:#EAA332"/>
			<stop  offset="0.1815" style="stop-color:#E2931D"/>
			<stop  offset="0.3326" style="stop-color:#FFEE8E"/>
			<stop  offset="0.4944" style="stop-color:#E7981C"/>
			<stop  offset="0.5462" style="stop-color:#E1931F"/>
			<stop  offset="0.6166" style="stop-color:#CF8626"/>
			<stop  offset="0.6662" style="stop-color:#BF792D"/>
			<stop  offset="0.8413" style="stop-color:#E2931D"/>
			<stop  offset="1" style="stop-color:#A86228"/>
		</linearGradient>
		<path class="st20" d="M14,20.1l0.1,0.7c0.6-0.1,1.1-0.3,1.6-0.5l-0.3-0.6C15,19.8,14.5,20,14,20.1z"/>
		<linearGradient id="SVGID_18_" gradientUnits="userSpaceOnUse" x1="17.5851" y1="4.0339" x2="17.5851" y2="20.8485">
			<stop  offset="0" style="stop-color:#FAC05B"/>
			<stop  offset="4.347953e-02" style="stop-color:#F8BD56"/>
			<stop  offset="9.237916e-02" style="stop-color:#F3B349"/>
			<stop  offset="0.1437" style="stop-color:#EAA332"/>
			<stop  offset="0.1815" style="stop-color:#E2931D"/>
			<stop  offset="0.3326" style="stop-color:#FFEE8E"/>
			<stop  offset="0.4944" style="stop-color:#E7981C"/>
			<stop  offset="0.5462" style="stop-color:#E1931F"/>
			<stop  offset="0.6166" style="stop-color:#CF8626"/>
			<stop  offset="0.6662" style="stop-color:#BF792D"/>
			<stop  offset="0.8413" style="stop-color:#E2931D"/>
			<stop  offset="1" style="stop-color:#A86228"/>
		</linearGradient>
		<path class="st21" d="M16.7,18.9l0.4,0.6c0.5-0.3,0.9-0.7,1.3-1.1l-0.5-0.5C17.6,18.3,17.2,18.6,16.7,18.9z"/>
	</g>
	<path class="st0" d="M2.5,13.9C2.5,13.9,2.5,13.9,2.5,13.9C2.5,13.9,2.5,13.9,2.5,13.9z"/>
	<path class="st0" d="M19.4,19.4c0.5-0.5,0.9-1,1.3-1.6C20.3,18.3,19.8,18.9,19.4,19.4z"/>
	<path class="st0" d="M9.4,21.8C9.7,21.9,10,22,10.2,22C10,22,9.7,21.9,9.4,21.8z"/>
	<path class="st0" d="M9,21.7c0.1,0,0.2,0.1,0.3,0.1C9.2,21.8,9.1,21.7,9,21.7z"/>
	<path class="st0" d="M22.1,10.7L22.1,10.7L22.1,10.7z"/>
	<path class="st22" d="M4.6,6C4.4,6.3,4.2,6.6,4,6.9C4.2,6.6,4.4,6.3,4.6,6z"/>
	<path class="st22" d="M4.9,5.7C4.8,5.8,4.7,5.9,4.6,6C4.7,5.9,4.8,5.8,4.9,5.7z"/>
	
		<linearGradient id="SVGID_19_" gradientUnits="userSpaceOnUse" x1="-26.6403" y1="847.4415" x2="-26.4466" y2="847.4415" gradientTransform="matrix(3.7452 -1.1097 -1.1097 -3.7452 1040.3127 3160.1365)">
		<stop  offset="0" style="stop-color:#908D8D"/>
		<stop  offset="8.237898e-02" style="stop-color:#9D9B9B"/>
		<stop  offset="0.3703" style="stop-color:#C7C6C6"/>
		<stop  offset="0.6293" style="stop-color:#E6E5E5"/>
		<stop  offset="0.8481" style="stop-color:#F8F8F8"/>
		<stop  offset="1" style="stop-color:#FFFFFF"/>
	</linearGradient>
	<path class="st23" d="M1.3,17.5c-0.1-0.1-0.1-0.3-0.2-0.4c-0.3-0.7-0.6-1.5-0.7-2.3c-0.1-0.3-0.1-0.7-0.2-1l-0.2,0
		c0,0.3,0.1,0.7,0.2,1c0.2,0.8,0.4,1.6,0.7,2.3c0.1,0.1,0.1,0.3,0.2,0.4L1.3,17.5z"/>
	
		<linearGradient id="SVGID_20_" gradientUnits="userSpaceOnUse" x1="11.3814" y1="664.1676" x2="11.5752" y2="664.1676" gradientTransform="matrix(-5.3902 -5.3902 -5.3902 5.3902 3663.3188 -3497.4871)">
		<stop  offset="0" style="stop-color:#908D8D"/>
		<stop  offset="8.237898e-02" style="stop-color:#9D9B9B"/>
		<stop  offset="0.3703" style="stop-color:#C7C6C6"/>
		<stop  offset="0.6293" style="stop-color:#E6E5E5"/>
		<stop  offset="0.8481" style="stop-color:#F8F8F8"/>
		<stop  offset="1" style="stop-color:#FFFFFF"/>
	</linearGradient>
	<path class="st24" d="M20.9,20.9c-0.3,0.3-0.7,0.6-1,0.9l0.1,0.1c0.4-0.3,0.7-0.6,1-0.9c0.6-0.6,1.1-1.3,1.6-2L22.5,19
		C22,19.7,21.5,20.3,20.9,20.9z"/>
	
		<linearGradient id="SVGID_21_" gradientUnits="userSpaceOnUse" x1="77.398" y1="778.4819" x2="77.5919" y2="778.4819" gradientTransform="matrix(1.4311 -3.7061 -3.7061 -1.4311 2782.1277 1425.0183)">
		<stop  offset="0" style="stop-color:#908D8D"/>
		<stop  offset="8.237898e-02" style="stop-color:#9D9B9B"/>
		<stop  offset="0.3703" style="stop-color:#C7C6C6"/>
		<stop  offset="0.6293" style="stop-color:#E6E5E5"/>
		<stop  offset="0.8481" style="stop-color:#F8F8F8"/>
		<stop  offset="1" style="stop-color:#FFFFFF"/>
	</linearGradient>
	<path class="st25" d="M7.8,23.6c-0.6-0.2-1.1-0.5-1.6-0.8L6.1,23c0.5,0.3,1.1,0.6,1.6,0.8c0.6,0.3,1.3,0.5,2,0.6l0-0.2
		C9.1,24,8.4,23.8,7.8,23.6z"/>
	
		<linearGradient id="SVGID_22_" gradientUnits="userSpaceOnUse" x1="-52.0066" y1="625.6235" x2="-51.8125" y2="625.6235" gradientTransform="matrix(-6.7547 1.559 1.559 6.7547 -1301.8579 -4136.0713)">
		<stop  offset="0" style="stop-color:#908D8D"/>
		<stop  offset="8.237898e-02" style="stop-color:#9D9B9B"/>
		<stop  offset="0.3703" style="stop-color:#C7C6C6"/>
		<stop  offset="0.6293" style="stop-color:#E6E5E5"/>
		<stop  offset="0.8481" style="stop-color:#F8F8F8"/>
		<stop  offset="1" style="stop-color:#FFFFFF"/>
	</linearGradient>
	<path class="st26" d="M23.5,7.5C23.8,8.3,24,9,24.2,9.8c0.1,0.3,0.1,0.7,0.2,1l0.2,0c0-0.3-0.1-0.7-0.2-1C24.2,9,24,8.2,23.6,7.5
		c-0.1-0.1-0.1-0.3-0.2-0.4l-0.2,0.1C23.4,7.3,23.4,7.4,23.5,7.5z"/>
	
		<linearGradient id="SVGID_23_" gradientUnits="userSpaceOnUse" x1="-115.983" y1="662.2678" x2="-115.7894" y2="662.2678" gradientTransform="matrix(-2.6351 6.3796 6.3796 2.6351 -4513.52 -1005.1949)">
		<stop  offset="0" style="stop-color:#908D8D"/>
		<stop  offset="8.237898e-02" style="stop-color:#9D9B9B"/>
		<stop  offset="0.3703" style="stop-color:#C7C6C6"/>
		<stop  offset="0.6293" style="stop-color:#E6E5E5"/>
		<stop  offset="0.8481" style="stop-color:#F8F8F8"/>
		<stop  offset="1" style="stop-color:#FFFFFF"/>
	</linearGradient>
	<path class="st27" d="M16.8,1c0.6,0.2,1.1,0.5,1.6,0.8l0.1-0.2c-0.5-0.3-1.1-0.6-1.6-0.8c-0.6-0.3-1.3-0.5-2-0.6l0,0.2
		C15.6,0.6,16.2,0.8,16.8,1z"/>
	<g>
		
			<linearGradient id="SVGID_24_" gradientUnits="userSpaceOnUse" x1="-23.16" y1="632.9366" x2="-22.9661" y2="632.9366" gradientTransform="matrix(-6.3948 -2.2152 -2.2152 6.3948 1254.0481 -4089.4392)">
			<stop  offset="0" style="stop-color:#A86228"/>
			<stop  offset="0.1587" style="stop-color:#E2931D"/>
			<stop  offset="0.3284" style="stop-color:#BF792D"/>
			<stop  offset="0.3796" style="stop-color:#CF8626"/>
			<stop  offset="0.4521" style="stop-color:#E1931F"/>
			<stop  offset="0.5056" style="stop-color:#E7981C"/>
			<stop  offset="0.6674" style="stop-color:#FFEE8E"/>
			<stop  offset="0.8185" style="stop-color:#E2931D"/>
			<stop  offset="0.8563" style="stop-color:#EAA332"/>
			<stop  offset="0.9076" style="stop-color:#F3B349"/>
			<stop  offset="0.9565" style="stop-color:#F8BD56"/>
			<stop  offset="1" style="stop-color:#FAC05B"/>
		</linearGradient>
		<path class="st28" d="M0.3,13.8c-0.1-0.5-0.1-1-0.1-1.5c0-0.8,0.1-1.6,0.2-2.4C0.6,9.2,0.8,8.5,1,7.8c0.3-0.7,0.7-1.5,1.1-2.1l0,0
			L2,5.6l0,0C1.6,6.3,1.2,7,0.9,7.7C0.6,8.4,0.4,9.2,0.2,9.9C0.1,10.7,0,11.5,0,12.3c0,0.5,0,1,0.1,1.5L0.3,13.8z"/>
		
			<linearGradient id="SVGID_25_" gradientUnits="userSpaceOnUse" x1="-108.9829" y1="636.2593" x2="-108.789" y2="636.2593" gradientTransform="matrix(-4.8493 4.6142 4.6142 4.8493 -3460.6089 -2562.3342)">
			<stop  offset="0" style="stop-color:#A86228"/>
			<stop  offset="0.1587" style="stop-color:#E2931D"/>
			<stop  offset="0.3284" style="stop-color:#BF792D"/>
			<stop  offset="0.3796" style="stop-color:#CF8626"/>
			<stop  offset="0.4521" style="stop-color:#E1931F"/>
			<stop  offset="0.5056" style="stop-color:#E7981C"/>
			<stop  offset="0.6674" style="stop-color:#FFEE8E"/>
			<stop  offset="0.8185" style="stop-color:#E2931D"/>
			<stop  offset="0.8563" style="stop-color:#EAA332"/>
			<stop  offset="0.9076" style="stop-color:#F3B349"/>
			<stop  offset="0.9565" style="stop-color:#F8BD56"/>
			<stop  offset="1" style="stop-color:#FAC05B"/>
		</linearGradient>
		<path class="st29" d="M6.2,22.8c-0.2-0.1-0.3-0.2-0.5-0.3c-0.7-0.5-1.4-1-2-1.6c-0.6-0.6-1.1-1.2-1.5-1.8c-0.3-0.5-0.6-1-0.9-1.6
			l-0.2,0.1c0.3,0.6,0.6,1.1,0.9,1.6c0.5,0.7,1,1.3,1.5,1.9c0.6,0.6,1.3,1.1,2,1.6c0.2,0.1,0.3,0.2,0.5,0.3L6.2,22.8z"/>
		
			<linearGradient id="SVGID_26_" gradientUnits="userSpaceOnUse" x1="-102.7898" y1="708.8287" x2="-102.5959" y2="708.8287" gradientTransform="matrix(3.1438 12.3895 12.3895 -3.1438 -8444.1641 3524.4758)">
			<stop  offset="0" style="stop-color:#A86228"/>
			<stop  offset="0.1587" style="stop-color:#E2931D"/>
			<stop  offset="0.3284" style="stop-color:#BF792D"/>
			<stop  offset="0.3796" style="stop-color:#CF8626"/>
			<stop  offset="0.4521" style="stop-color:#E1931F"/>
			<stop  offset="0.5056" style="stop-color:#E7981C"/>
			<stop  offset="0.6674" style="stop-color:#FFEE8E"/>
			<stop  offset="0.8185" style="stop-color:#E2931D"/>
			<stop  offset="0.8563" style="stop-color:#EAA332"/>
			<stop  offset="0.9076" style="stop-color:#F3B349"/>
			<stop  offset="0.9565" style="stop-color:#F8BD56"/>
			<stop  offset="1" style="stop-color:#FAC05B"/>
		</linearGradient>
		<path class="st30" d="M19.9,21.8c-0.3,0.2-0.6,0.4-0.8,0.6c-0.6,0.4-1.3,0.8-2,1.1c-0.7,0.3-1.5,0.6-2.3,0.7
			c-0.8,0.2-1.6,0.3-2.5,0.3c-0.8,0-1.6-0.1-2.4-0.2c-0.1,0-0.1,0-0.2,0l0,0.2c0.1,0,0.1,0,0.2,0c0.8,0.2,1.6,0.2,2.4,0.2
			c0.9,0,1.7-0.1,2.5-0.3c0.8-0.2,1.6-0.4,2.3-0.7c0.7-0.3,1.4-0.7,2-1.1c0.3-0.2,0.6-0.4,0.9-0.6L19.9,21.8z"/>
		
			<linearGradient id="SVGID_27_" gradientUnits="userSpaceOnUse" x1="-84.6779" y1="715.6246" x2="-84.484" y2="715.6246" gradientTransform="matrix(10.1714 15.5348 15.5348 -10.1714 -10233.8604 8606.8311)">
			<stop  offset="0" style="stop-color:#A86228"/>
			<stop  offset="0.1587" style="stop-color:#E2931D"/>
			<stop  offset="0.3284" style="stop-color:#BF792D"/>
			<stop  offset="0.3796" style="stop-color:#CF8626"/>
			<stop  offset="0.4521" style="stop-color:#E1931F"/>
			<stop  offset="0.5056" style="stop-color:#E7981C"/>
			<stop  offset="0.6674" style="stop-color:#FFEE8E"/>
			<stop  offset="0.8185" style="stop-color:#E2931D"/>
			<stop  offset="0.8563" style="stop-color:#EAA332"/>
			<stop  offset="0.9076" style="stop-color:#F3B349"/>
			<stop  offset="0.9565" style="stop-color:#F8BD56"/>
			<stop  offset="1" style="stop-color:#FAC05B"/>
		</linearGradient>
		<path class="st31" d="M24.5,10.8l-0.2,0v0c0.1,0.5,0.1,1,0.1,1.5c0,0.8-0.1,1.6-0.2,2.4c-0.1,0.7-0.4,1.5-0.6,2.1
			c-0.3,0.7-0.7,1.5-1.1,2.1l0,0l0.1,0.1l0,0c0.4-0.7,0.8-1.4,1.1-2.1c0.3-0.7,0.5-1.4,0.6-2.2c0.2-0.8,0.2-1.6,0.2-2.4
			C24.6,11.8,24.6,11.3,24.5,10.8z"/>
		
			<linearGradient id="SVGID_28_" gradientUnits="userSpaceOnUse" x1="-39.0757" y1="765.9813" x2="-38.8818" y2="765.9813" gradientTransform="matrix(7.3982 -4.2536 -4.2536 -7.3982 3567.625 5505.4072)">
			<stop  offset="0" style="stop-color:#A86228"/>
			<stop  offset="0.1587" style="stop-color:#E2931D"/>
			<stop  offset="0.3284" style="stop-color:#BF792D"/>
			<stop  offset="0.3796" style="stop-color:#CF8626"/>
			<stop  offset="0.4521" style="stop-color:#E1931F"/>
			<stop  offset="0.5056" style="stop-color:#E7981C"/>
			<stop  offset="0.6674" style="stop-color:#FFEE8E"/>
			<stop  offset="0.8185" style="stop-color:#E2931D"/>
			<stop  offset="0.8563" style="stop-color:#EAA332"/>
			<stop  offset="0.9076" style="stop-color:#F3B349"/>
			<stop  offset="0.9565" style="stop-color:#F8BD56"/>
			<stop  offset="1" style="stop-color:#FAC05B"/>
		</linearGradient>
		<path class="st32" d="M18.4,1.8C18.6,1.9,18.8,2,19,2.1c0.7,0.5,1.4,1,2,1.6c0.6,0.6,1.1,1.2,1.5,1.8c0.3,0.5,0.6,1,0.9,1.6
			l0.2-0.1c-0.3-0.6-0.6-1.1-0.9-1.6c-0.5-0.7-1-1.3-1.5-1.9C20.4,3,19.8,2.5,19,2c-0.2-0.1-0.3-0.2-0.5-0.3L18.4,1.8z"/>
		
			<linearGradient id="SVGID_29_" gradientUnits="userSpaceOnUse" x1="53.3592" y1="694.408" x2="53.5531" y2="694.408" gradientTransform="matrix(-1.2515 -4.4379 -4.4379 1.2515 3157.8701 -632.1436)">
			<stop  offset="0" style="stop-color:#A86228"/>
			<stop  offset="0.1587" style="stop-color:#E2931D"/>
			<stop  offset="0.3284" style="stop-color:#BF792D"/>
			<stop  offset="0.3796" style="stop-color:#CF8626"/>
			<stop  offset="0.4521" style="stop-color:#E1931F"/>
			<stop  offset="0.5056" style="stop-color:#E7981C"/>
			<stop  offset="0.6674" style="stop-color:#FFEE8E"/>
			<stop  offset="0.8185" style="stop-color:#E2931D"/>
			<stop  offset="0.8563" style="stop-color:#EAA332"/>
			<stop  offset="0.9076" style="stop-color:#F3B349"/>
			<stop  offset="0.9565" style="stop-color:#F8BD56"/>
			<stop  offset="1" style="stop-color:#FAC05B"/>
		</linearGradient>
		<path class="st33" d="M4.7,2.8C5,2.6,5.3,2.4,5.6,2.2c0.6-0.4,1.3-0.8,2-1.1C8.3,0.8,9,0.6,9.8,0.4c0.8-0.2,1.6-0.3,2.5-0.3
			c0.8,0,1.6,0.1,2.4,0.2c0.1,0,0.1,0,0.2,0l0-0.2c-0.1,0-0.1,0-0.2,0C14,0.1,13.1,0,12.3,0c-0.9,0-1.7,0.1-2.5,0.3
			C9,0.4,8.2,0.7,7.5,1c-0.7,0.3-1.4,0.7-2,1.1C5.2,2.3,4.9,2.5,4.6,2.7L4.7,2.8z"/>
	</g>
	
		<linearGradient id="SVGID_30_" gradientUnits="userSpaceOnUse" x1="-101.8156" y1="745.3105" x2="-101.6212" y2="745.3105" gradientTransform="matrix(6.2075 5.75 5.75 -6.2075 -3651.1565 5215.1973)">
		<stop  offset="0" style="stop-color:#908D8D"/>
		<stop  offset="8.237898e-02" style="stop-color:#9D9B9B"/>
		<stop  offset="0.3703" style="stop-color:#C7C6C6"/>
		<stop  offset="0.6293" style="stop-color:#E6E5E5"/>
		<stop  offset="0.8481" style="stop-color:#F8F8F8"/>
		<stop  offset="1" style="stop-color:#FFFFFF"/>
	</linearGradient>
	<path class="st34" d="M3.7,3.7c0.3-0.3,0.7-0.6,1-0.9L4.6,2.7C4.3,3,3.9,3.3,3.6,3.6C3,4.2,2.5,4.9,2,5.6l0.1,0.1
		C2.6,5,3.1,4.3,3.7,3.7z"/>
	<path class="st22" d="M14.4,22.7c0-0.3,0.2-0.5,0.5-0.5c0.3,0,0.5,0.2,0.5,0.5c0,0.3-0.2,0.5-0.5,0.5C14.7,23.2,14.4,23,14.4,22.7z
		"/>
	<path class="st22" d="M9.3,1.9c0-0.3,0.2-0.5,0.5-0.5c0.3,0,0.5,0.2,0.5,0.5s-0.2,0.5-0.5,0.5C9.6,2.4,9.3,2.2,9.3,1.9z"/>
	<path class="st22" d="M1.3,10.4c0-0.3,0.2-0.5,0.5-0.5c0.3,0,0.5,0.2,0.5,0.5c0,0.3-0.2,0.5-0.5,0.5C1.5,10.9,1.3,10.7,1.3,10.4z"
		/>
	<path class="st22" d="M4.1,19.7c0-0.3,0.2-0.5,0.5-0.5s0.5,0.2,0.5,0.5c0,0.3-0.2,0.5-0.5,0.5S4.1,20,4.1,19.7z"/>
	<path class="st22" d="M22.2,14.8c0-0.3,0.2-0.5,0.5-0.5s0.5,0.2,0.5,0.5s-0.2,0.5-0.5,0.5S22.2,15.1,22.2,14.8z"/>
	<path class="st22" d="M19.7,5.2c0-0.3,0.2-0.5,0.5-0.5c0.3,0,0.5,0.2,0.5,0.5s-0.2,0.5-0.5,0.5C19.9,5.7,19.7,5.5,19.7,5.2z"/>
	
		<radialGradient id="SVGID_31_" cx="-60.9056" cy="709.5201" r="9.697013e-02" gradientTransform="matrix(57.9976 57.9976 57.9976 -57.9976 -37605.7695 44695.1641)" gradientUnits="userSpaceOnUse">
		<stop  offset="0" style="stop-color:#E7981C"/>
		<stop  offset="1" style="stop-color:#A86228"/>
	</radialGradient>
	<path class="st35" d="M19,16.7c0.3-0.4,0.5-0.9,0.7-1.4c0.2-0.5,0.3-0.9,0.4-1.4c0.1-0.5,0.2-1,0.2-1.6c0-0.5-0.1-1.1-0.2-1.6
		c-0.1-0.5-0.3-1-0.5-1.5c-0.2-0.4-0.4-0.9-0.7-1.3c-0.1-0.1-0.1-0.2-0.2-0.3c0,0,0-0.1-0.1-0.1c-0.1-0.1-0.1-0.1-0.2-0.2
		c0,0,0-0.1-0.1-0.1c-0.1-0.1-0.1-0.2-0.2-0.2l0,0c-0.1-0.1-0.2-0.2-0.3-0.3c-0.1-0.1-0.2-0.2-0.3-0.3l0,0l0,0l0,0l0,0
		c-0.1-0.1-0.2-0.1-0.3-0.2c0,0-0.1-0.1-0.1-0.1C17.2,6,17.1,6,17.1,5.9c0,0-0.1,0-0.1-0.1c-0.1-0.1-0.2-0.1-0.3-0.2
		c-0.4-0.3-0.9-0.5-1.4-0.7c-0.5-0.2-0.9-0.3-1.4-0.4c-0.5-0.1-1-0.2-1.6-0.2c-0.5,0-1.1,0.1-1.6,0.2c-0.5,0.1-1,0.3-1.5,0.5
		C8.7,5.2,8.3,5.4,7.9,5.7C7.5,6,7.1,6.3,6.7,6.7C6.3,7.1,6,7.5,5.7,8C5.4,8.4,5.1,8.9,4.9,9.4c-0.2,0.5-0.3,0.9-0.4,1.4
		c-0.1,0.5-0.2,1-0.2,1.6c0,0.5,0.1,1.1,0.2,1.6c0.1,0.5,0.3,1,0.5,1.5c0.2,0.4,0.4,0.9,0.7,1.3c0.1,0.1,0.1,0.2,0.2,0.3
		c0,0,0,0.1,0.1,0.1c0.1,0.1,0.1,0.1,0.2,0.2c0,0,0,0.1,0.1,0.1c0.1,0.1,0.1,0.2,0.2,0.2c0.1,0.1,0.2,0.2,0.3,0.3
		c0.4,0.4,0.8,0.7,1.3,1c0.4,0.3,0.9,0.5,1.4,0.7c0.5,0.2,0.9,0.3,1.4,0.4c0.5,0.1,1,0.2,1.6,0.2c0.5,0,1.1-0.1,1.6-0.2
		c0.5-0.1,1-0.3,1.5-0.5c0.4-0.2,0.9-0.4,1.3-0.7c0.4-0.3,0.8-0.6,1.2-1C18.3,17.5,18.7,17.1,19,16.7z M18.8,7.7
		C18.8,7.7,18.8,7.7,18.8,7.7C18.8,7.7,18.8,7.7,18.8,7.7z M18.6,7.5c0,0-0.1-0.1-0.1-0.1C18.6,7.4,18.6,7.4,18.6,7.5z M18.4,7.2
		c-0.1-0.1-0.1-0.2-0.2-0.2C18.3,7.1,18.4,7.2,18.4,7.2z M17.6,6.4c-0.1-0.1-0.2-0.1-0.2-0.2C17.5,6.2,17.5,6.3,17.6,6.4z M17.2,6.1
		c0,0-0.1-0.1-0.2-0.1C17.1,6,17.2,6,17.2,6.1z M16.9,5.8C16.9,5.8,16.9,5.8,16.9,5.8C16.9,5.8,16.9,5.8,16.9,5.8z M5.8,16.9
		C5.9,17,5.9,17,5.8,16.9C5.9,17,5.9,17,5.8,16.9z M6,17.1c0,0,0.1,0.1,0.1,0.1C6.1,17.2,6,17.2,6,17.1z M6.2,17.4
		c0.1,0.1,0.1,0.2,0.2,0.2C6.3,17.6,6.3,17.5,6.2,17.4z"/>
	<radialGradient id="SVGID_32_" cx="12.3203" cy="12.3202" r="7.7832" gradientUnits="userSpaceOnUse">
		<stop  offset="0.8387" style="stop-color:#FFFFFF"/>
		<stop  offset="0.874" style="stop-color:#FCFCFC"/>
		<stop  offset="0.898" style="stop-color:#F3F3F3"/>
		<stop  offset="0.9186" style="stop-color:#E4E4E4"/>
		<stop  offset="0.9374" style="stop-color:#CFCECF"/>
		<stop  offset="0.9548" style="stop-color:#B3B2B3"/>
		<stop  offset="0.9714" style="stop-color:#919091"/>
		<stop  offset="0.9869" style="stop-color:#69686A"/>
		<stop  offset="1" style="stop-color:#414042"/>
	</radialGradient>
	<path class="st36" d="M19.9,10.7c-0.1-0.5-0.3-1-0.5-1.5c-0.2-0.4-0.4-0.9-0.7-1.3c-0.3-0.4-0.6-0.8-1-1.2c-0.4-0.4-0.8-0.7-1.3-1
		c-0.4-0.3-0.9-0.5-1.4-0.7c-0.4-0.2-0.9-0.3-1.4-0.4c-0.1,0-0.2,0-0.3-0.1c0,0-0.1,0-0.1,0c-0.1,0-0.2,0-0.2,0c0,0-0.1,0-0.1,0
		c-0.1,0-0.2,0-0.3,0l0,0c-0.1,0-0.3,0-0.4,0c-0.1,0-0.3,0-0.4,0h0h0h0l0,0c-0.1,0-0.2,0-0.3,0c0,0-0.1,0-0.1,0c-0.1,0-0.2,0-0.3,0
		c0,0-0.1,0-0.1,0c-0.1,0-0.2,0-0.4,0.1c-0.5,0.1-1,0.3-1.5,0.5C8.8,5.4,8.4,5.6,8,5.8c-0.4,0.3-0.8,0.6-1.2,1
		c-0.4,0.4-0.7,0.8-1,1.3C5.5,8.5,5.3,8.9,5.1,9.4c-0.2,0.4-0.3,0.9-0.4,1.4c-0.1,0.5-0.2,1-0.2,1.5c0,0.5,0.1,1.1,0.2,1.6
		c0.1,0.5,0.3,1,0.5,1.5c0.2,0.4,0.4,0.9,0.7,1.3c0.3,0.4,0.6,0.8,1,1.2c0.4,0.4,0.8,0.7,1.3,1c0.4,0.3,0.9,0.5,1.4,0.7
		c0.4,0.2,0.9,0.3,1.4,0.4c0.1,0,0.2,0,0.3,0.1c0,0,0.1,0,0.1,0c0.1,0,0.2,0,0.2,0c0,0,0.1,0,0.1,0c0.1,0,0.2,0,0.3,0
		c0.1,0,0.3,0,0.4,0c0.5,0,1.1-0.1,1.6-0.2c0.5-0.1,1-0.3,1.5-0.5c0.4-0.2,0.9-0.4,1.3-0.7c0.4-0.3,0.8-0.6,1.2-1
		c0.4-0.4,0.7-0.8,1-1.3c0.3-0.4,0.5-0.9,0.7-1.4c0.2-0.4,0.3-0.9,0.4-1.4c0.1-0.5,0.2-1,0.2-1.5C20.1,11.8,20,11.2,19.9,10.7z
		 M13.6,4.6C13.6,4.6,13.6,4.6,13.6,4.6C13.6,4.6,13.6,4.6,13.6,4.6z M13.4,4.6c-0.1,0-0.1,0-0.2,0C13.2,4.6,13.3,4.6,13.4,4.6z
		 M13,4.6c-0.1,0-0.2,0-0.3,0C12.8,4.6,12.9,4.6,13,4.6z M11.4,4.6c-0.1,0-0.1,0-0.2,0C11.3,4.6,11.3,4.6,11.4,4.6z M11,4.6
		C11,4.6,11,4.7,11,4.6C11,4.7,11,4.6,11,4.6z M11,20C11.1,20,11.1,20,11,20C11.1,20,11.1,20,11,20z M11.3,20c0.1,0,0.1,0,0.2,0
		C11.4,20,11.3,20,11.3,20z M11.6,20.1c0.1,0,0.2,0,0.3,0C11.8,20.1,11.7,20.1,11.6,20.1z"/>
</g>
</svg>
