<?xml version="1.0" encoding="utf-8"?>
<!-- Generator: Adobe Illustrator 22.0.0, SVG Export Plug-In . SVG Version: 6.00 Build 0)  -->
<svg version="1.1" id="Layer_1" xmlns="http://www.w3.org/2000/svg" xmlns:xlink="http://www.w3.org/1999/xlink" x="0px" y="0px"
	 viewBox="0 0 215.6 215.6" style="enable-background:new 0 0 215.6 215.6;" xml:space="preserve">
<style type="text/css">
	.st0{fill:url(#SVGID_1_);}
	.st1{fill:#DFB28B;}
	.st2{fill:#ECC19C;}
	.st3{fill:#CF9E76;}
	.st4{fill:#F0D0B4;}
	.st5{fill:#F5E0CD;}
	.st6{fill:#505050;}
	.st7{fill:#3C3C3C;}
</style>
<radialGradient id="SVGID_1_" cx="107.8056" cy="107.8056" r="159.5501" gradientUnits="userSpaceOnUse">
	<stop  offset="0.4032" style="stop-color:#FFFFFF"/>
	<stop  offset="0.5642" style="stop-color:#FCFCFC"/>
	<stop  offset="0.6935" style="stop-color:#F2F2F2"/>
	<stop  offset="0.8118" style="stop-color:#E1E1E1"/>
	<stop  offset="0.9228" style="stop-color:#C9C9C9"/>
	<stop  offset="1" style="stop-color:#B4B4B4"/>
</radialGradient>
<circle class="st0" cx="107.8" cy="107.8" r="107.8"/>
<g>
	<g>
		<path class="st1" d="M90.2,157.8c0,0-13.1-4.9-14.6-8c-1.5-3.1-6.8-17.4-14-18.1c-1.7-0.2-2.1,1.1-2.1,1.1s-7-5.9-12.4-4.2
			c-5.4,1.7,4.2,16,4.2,16s22.4,38.8,71.7,30.8C172.2,167.5,90.2,157.8,90.2,157.8z"/>
		<path class="st2" d="M169.4,192.7c0,0-5.3-8.7-21.4-7.1c-16.1,1.6-33.4,3.3-42,0.5c-8.7-2.8-32.5-6.9-40.3-15.3
			c-7.6-8.3-12.2-11.9-13.7-16.2c-1-3-6.7-19.8-5.7-21.4c1-1.6,8.2-1.6,12.5,7.1c2.8,5.7,3.8,12,3.8,12s13.8,9,18.2,11.2
			c4.4,2.2,38,11.8,39.4,9.1c1.4-2.6-28.5-7.8-30-11.3c-1.9-4.3,2.4-10.4,14.9-7.8c12.5,2.7,15.3,3.4,18.5,3.1
			C126.8,156.3,163.2,147.7,169.4,192.7z"/>
		<path class="st3" d="M52.3,128.8c0,0,0.2,0.1,0.6,0.2c0.4,0.1,1,0.3,1.8,0.6c1.5,0.6,3.5,1.9,5.3,3.9c1.9,2,3.7,4.6,5.2,7.5
			c0.8,1.5,1.4,3,2.1,4.6c0.3,0.8,0.6,1.6,0.9,2.4l0.4,1.2l0.2,0.6l0,0.1l0,0.1l0,0c0.1,0.2-0.1-0.2-0.1-0.1l0,0
			c0.1,0.1,0.1,0.1,0.1,0c0.5,0.4,1.3,0.9,2,1.4c0.7,0.5,1.5,0.9,2.2,1.4c1.5,0.9,3,1.8,4.4,2.6c2.9,1.7,5.6,3.2,8,4.4
			c2.4,1.2,4.4,2.2,5.9,2.8c1.5,0.6,2.3,0.9,2.3,0.9s-0.2,0-0.7-0.1c-0.4-0.1-1.1-0.1-1.9-0.3c-1.6-0.3-3.8-1-6.4-2
			c-2.6-1-5.5-2.3-8.5-3.9c-1.5-0.8-3-1.7-4.6-2.6c-0.8-0.5-1.5-0.9-2.3-1.4c-0.8-0.5-1.5-1-2.3-1.7c-0.2-0.2-0.4-0.4-0.4-0.4l0,0
			l-0.1-0.2l0,0l0-0.1l-0.1-0.2l-0.2-0.6l-0.4-1.2c-0.3-0.8-0.5-1.6-0.8-2.4c-0.5-1.6-1.1-3.1-1.8-4.5c-1.3-2.9-2.7-5.5-4.3-7.5
			c-1.5-2-3.2-3.5-4.5-4.3c-0.6-0.4-1.2-0.7-1.6-0.9C52.5,128.9,52.3,128.8,52.3,128.8z"/>
		<path class="st3" d="M53.3,133.9c0,0,0.3,0.2,0.7,0.6c0.2,0.2,0.5,0.4,0.9,0.7c0.3,0.3,0.7,0.6,1.1,1.1c1.6,1.6,3.2,4.4,4.5,7.9
			c0.7,1.7,1.3,3.7,2,5.7c0.2,0.5,0.4,1,0.6,1.5c0.2,0.5,0.4,1.1,0.7,1.4c0.6,0.8,1.6,1.5,2.6,2.1c4,2.5,8.8,4.7,13.6,6.7
			c4.8,2,9.7,3.9,14.4,5.5c4.7,1.6,9,3,12.9,4c3.8,1,7.1,1.6,9.4,1.7c1.1,0,2.1,0,2.7-0.1c0.6-0.1,0.9-0.3,0.9-0.3s-0.3,0.2-0.9,0.4
			c-0.6,0.2-1.5,0.4-2.7,0.4c-2.4,0-5.7-0.3-9.6-1.1c-3.9-0.8-8.4-2-13.1-3.5c-4.7-1.6-9.7-3.3-14.5-5.4c-2.4-1-4.8-2.1-7.1-3.3
			c-2.3-1.2-4.6-2.4-6.6-3.8c-1-0.7-2-1.5-2.8-2.5c-0.4-0.6-0.5-1.1-0.7-1.6c-0.2-0.5-0.4-1-0.5-1.5c-0.6-2-1.2-3.9-1.8-5.7
			c-1.1-3.5-2.5-6.3-4-8c-0.3-0.4-0.7-0.8-1-1.1c-0.3-0.3-0.6-0.6-0.8-0.8C53.6,134.1,53.3,133.9,53.3,133.9z"/>
		<path class="st4" d="M100.4,164.2c0,0-7.3-0.9-8.9-3.2c-1.2-1.8,1.1-5,2.2-5.3c1.9-0.6,8.3,2.5,8.3,2.5L100.4,164.2z"/>
		<path class="st5" d="M100.4,164.2c0,0-3.6-3.3,1.6-6.1L100.4,164.2z"/>
	</g>
	<g>
		<rect x="107.1" y="78.2" class="st6" width="11.9" height="3"/>
		<rect x="110.2" y="80.5" class="st6" width="5.8" height="58.6"/>
		<rect x="105" y="134.6" class="st6" width="17.8" height="3"/>
		<path class="st6" d="M113,90.2c-5.7,0-9.5-2.2-13.2-4.2c-4.4-2.5-9-5.1-17.5-4.4l-0.2-3c9.4-0.8,14.6,2.2,19.2,4.8
			c3.7,2.1,6.8,3.9,11.8,3.9V90.2z"/>
		<path class="st6" d="M113.1,90.2v-3c4.9,0,8.1-1.8,11.8-3.9c4.6-2.6,9.8-5.5,19.2-4.8l-0.2,3c-8.5-0.7-13.1,1.9-17.5,4.4
			C122.6,88,118.8,90.2,113.1,90.2z"/>
		<rect x="99.5" y="137.6" class="st6" width="28.8" height="3"/>
		<path class="st7" d="M116.4,73.6c0,1.8-1.5,3.3-3.3,3.3c-1.8,0-3.3-1.5-3.3-3.3c0-1.8,1.5-3.3,3.3-3.3
			C114.9,70.3,116.4,71.8,116.4,73.6z"/>
		
			<rect x="62.5" y="97.1" transform="matrix(0.2412 -0.9705 0.9705 0.2412 -33.5123 152.3927)" class="st6" width="36.4" height="1"/>
		<rect x="89" y="79.4" transform="matrix(0.9703 -0.2418 0.2418 0.9703 -20.949 24.5386)" class="st6" width="1" height="36.4"/>
		<rect x="84.6" y="79.9" class="st6" width="1" height="36.1"/>
		
			<rect x="119.6" y="97.1" transform="matrix(0.2406 -0.9706 0.9706 0.2406 9.9259 207.9406)" class="st6" width="36.4" height="1"/>
		
			<rect x="146.2" y="79.4" transform="matrix(0.9703 -0.2418 0.2418 0.9703 -19.255 38.3632)" class="st6" width="1" height="36.4"/>
		<path class="st6" d="M85.1,115.1h-9.6c0,0,0.7,6.2,9.6,6.2c8.8,0,9.6-6.2,9.6-6.2H85.1z"/>
		<rect x="141.8" y="79.9" class="st6" width="1" height="36.1"/>
		<path class="st7" d="M88.4,79.9c0,1.8-1.5,3.3-3.3,3.3c-1.8,0-3.3-1.5-3.3-3.3c0-1.8,1.5-3.3,3.3-3.3
			C86.9,76.6,88.4,78.1,88.4,79.9z"/>
		<path class="st7" d="M145.4,79.9c0,1.8-1.5,3.3-3.3,3.3c-1.8,0-3.3-1.5-3.3-3.3c0-1.8,1.5-3.3,3.3-3.3
			C143.9,76.6,145.4,78.1,145.4,79.9z"/>
		<path class="st6" d="M142.3,115.1h-9.6c0,0,0.7,6.2,9.6,6.2c8.8,0,9.6-6.2,9.6-6.2H142.3z"/>
		<path class="st7" d="M94.7,115.1h-9.6v6.2C93.9,121.2,94.7,115.1,94.7,115.1z"/>
		<rect x="113.1" y="80.5" class="st7" width="2.9" height="58.6"/>
		<path class="st7" d="M151.8,115.1h-9.6v6.2C151.1,121.2,151.8,115.1,151.8,115.1z"/>
		<rect x="113.1" y="134.6" class="st7" width="9.6" height="3"/>
		<rect x="113.1" y="137.6" class="st7" width="15.2" height="3"/>
		<rect x="113.1" y="78.2" class="st7" width="5.8" height="3"/>
	</g>
	<g>
		<path class="st1" d="M125.5,47.6c0,0,13.9,2.2,16.1,4.9c2.2,2.7,10.6,15.7,17.8,14.9c1.7-0.2,1.8-1.4,1.8-1.4s8.2,4.4,13.1,1.7
			c4.9-2.7-7.7-14.9-7.7-14.9s-30.8-33.5-77.1-16.1C43.1,54.2,125.5,47.6,125.5,47.6z"/>
		<path class="st2" d="M40.1,29c0,0,7.2,7.4,22.5,2.7C78,27,94.6,22,103.6,23c9.1,1,33.4,0.3,42.9,7.1c9.3,6.6,14.7,9.3,17.1,13.1
			c1.7,2.7,11,18,10.5,19.8c-0.6,1.7-7.7,3.2-13.8-4.5c-4-5-6.5-11-6.5-11s-15.5-6.1-20.4-7.4c-4.9-1.3-39.8-4-40.6-1.2
			c-0.8,2.8,29.6,2,31.9,5.2c2.8,3.9,0,10.7-12.8,10.5c-12.8-0.1-15.7-0.4-18.8,0.6C90,56.2,56.4,71.8,40.1,29z"/>
		<path class="st3" d="M169.2,68.5c0,0-0.2,0-0.7,0c-0.4,0-1.1-0.1-1.9-0.3c-1.6-0.3-3.8-1.2-6.1-2.7c-2.3-1.5-4.6-3.7-6.8-6.3
			c-1.1-1.3-2.1-2.7-3.1-4.1c-0.5-0.7-1-1.4-1.4-2.2l-0.7-1.1l-0.3-0.5l-0.1-0.1l0,0l0,0c-0.1-0.1,0.1,0.2,0.1,0.1l0,0
			c-0.1-0.1-0.1-0.1-0.1,0c-0.5-0.3-1.5-0.7-2.3-1c-0.8-0.3-1.7-0.6-2.5-0.9c-1.7-0.6-3.3-1.2-4.9-1.7c-3.2-1.1-6.2-2-8.8-2.8
			c-2.6-0.7-4.8-1.3-6.4-1.6c-1.6-0.3-2.5-0.4-2.5-0.4s0.2,0,0.7-0.1c0.4,0,1.1-0.1,1.9-0.1c1.6,0,4,0.2,6.7,0.7
			c2.7,0.4,5.9,1.2,9.2,2.1c1.7,0.5,3.4,1,5.1,1.6c0.9,0.3,1.7,0.6,2.6,0.9c0.9,0.4,1.6,0.7,2.7,1.2c0.2,0.1,0.4,0.3,0.5,0.4l0,0
			l0.1,0.2l0,0l0.1,0.1l0.1,0.2l0.4,0.6l0.7,1.1c0.4,0.7,0.9,1.5,1.3,2.2c0.9,1.4,1.8,2.8,2.8,4.1c1.9,2.6,3.9,4.8,5.9,6.5
			c2,1.7,3.9,2.8,5.4,3.3c0.7,0.3,1.3,0.5,1.7,0.6C168.9,68.5,169.2,68.5,169.2,68.5z"/>
		<path class="st3" d="M167,63.7c0,0-0.3-0.1-0.9-0.4c-0.3-0.1-0.6-0.3-1-0.5c-0.4-0.2-0.8-0.5-1.3-0.8c-1.9-1.3-4.2-3.7-6.3-6.8
			c-1.1-1.6-2.1-3.3-3.3-5.1c-0.3-0.4-0.6-0.9-0.9-1.4c-0.3-0.4-0.6-1-1-1.2c-0.8-0.6-1.9-1.1-3-1.5c-4.5-1.7-9.7-2.9-14.8-3.9
			c-5.2-1-10.4-1.9-15.3-2.6c-4.9-0.6-9.5-1.2-13.5-1.4c-4-0.2-7.3-0.2-9.5,0.1c-1.1,0.2-2,0.4-2.6,0.7c-0.6,0.3-0.8,0.5-0.8,0.5
			s0.2-0.2,0.7-0.6c0.5-0.3,1.4-0.7,2.5-0.9c2.3-0.5,5.6-0.8,9.7-0.8c4,0,8.7,0.3,13.6,0.9c5,0.6,10.2,1.3,15.4,2.4
			c2.6,0.5,5.2,1.2,7.7,1.8c2.5,0.7,5,1.4,7.3,2.4c1.2,0.5,2.3,1,3.3,1.9c0.6,0.5,0.8,1,1.1,1.5c0.3,0.5,0.6,0.9,0.9,1.4
			c1.1,1.9,2.1,3.6,3,5.2c1.9,3.2,3.9,5.7,5.7,7c0.4,0.4,0.8,0.6,1.2,0.9c0.4,0.3,0.7,0.5,0.9,0.6C166.7,63.5,167,63.7,167,63.7z"/>
		<path class="st4" d="M114,43.3c0,0,7.4-0.6,9.5,1.4c1.6,1.5,0.1,5.1-1,5.6c-1.8,0.9-8.7-0.8-8.7-0.8L114,43.3z"/>
		<path class="st5" d="M114,43.3c0,0,4.3,2.6-0.2,6.3L114,43.3z"/>
	</g>
</g>
<text transform="matrix(1 0 0 1 712.4666 477.0287)" style="display:none;"><tspan x="0" y="0" style="display:inline; font-family:'MyriadPro-Regular'; font-size:12px;">&lt;?= S</tspan><tspan x="27.6" y="0" style="display:inline; font-family:'MyriadPro-Regular'; font-size:12px;">T</tspan><tspan x="32.7" y="0" style="display:inline; font-family:'MyriadPro-Regular'; font-size:12px;">A</tspan><tspan x="39.1" y="0" style="display:inline; font-family:'MyriadPro-Regular'; font-size:12px;">TIC_I</tspan><tspan x="63.8" y="0" style="display:inline; font-family:'MyriadPro-Regular'; font-size:12px;">M</tspan><tspan x="73.3" y="0" style="display:inline; font-family:'MyriadPro-Regular'; font-size:12px;">A</tspan><tspan x="80.5" y="0" style="display:inline; font-family:'MyriadPro-Regular'; font-size:12px;">GES_</tspan><tspan x="106" y="0" style="display:inline; font-family:'MyriadPro-Regular'; font-size:12px; letter-spacing:-1;">P</tspan><tspan x="111.4" y="0" style="display:inline; font-family:'MyriadPro-Regular'; font-size:12px;">A</tspan><tspan x="117.8" y="0" style="display:inline; font-family:'MyriadPro-Regular'; font-size:12px;">TH ?&gt;/</tspan></text>
</svg>
