<?xml version="1.0" encoding="utf-8"?>
<!-- Generator: Adobe Illustrator 22.0.0, SVG Export Plug-In . SVG Version: 6.00 Build 0)  -->
<svg version="1.1" id="Layer_1" xmlns="http://www.w3.org/2000/svg" xmlns:xlink="http://www.w3.org/1999/xlink" x="0px" y="0px"
	 viewBox="0 0 1005.6 401.9" style="enable-background:new 0 0 1005.6 401.9;" xml:space="preserve">
<style type="text/css">
	.st0{fill:url(#SVGID_1_);}
	.st1{fill:url(#SVGID_2_);}
	.st2{fill:url(#SVGID_3_);}
	.st3{fill:url(#SVGID_4_);}
	.st4{fill:none;}
	.st5{fill:url(#SVGID_5_);}
	.st6{fill:url(#SVGID_6_);}
	.st7{fill:url(#SVGID_7_);}
	.st8{fill:url(#SVGID_8_);}
	.st9{fill:url(#SVGID_9_);}
	.st10{fill:url(#SVGID_10_);}
	.st11{fill:#FAA41C;}
</style>
<g>
	
		<linearGradient id="SVGID_1_" gradientUnits="userSpaceOnUse" x1="527.0027" y1="-137.6786" x2="527.0027" y2="-539.6217" gradientTransform="matrix(0 1 -1 0 473.5446 -418.786)">
		<stop  offset="0" style="stop-color:#FCB316"/>
		<stop  offset="0.3473" style="stop-color:#F58220"/>
		<stop  offset="0.8909" style="stop-color:#ED1C24"/>
	</linearGradient>
	<path class="st0" d="M618,107c0,0,2.2-53.4,44.4-74c42.2-20.6,65.7-7.8,81.4-6.4c15.7,1.5,42.2,10.1,72.6-5.2
		c0,0-20.1,23.4-53.9,19.5c-33.8-3.9-34.4,12.4-30,18.6c4.4,6.3,12.5,8.1,29.8-0.7c17.3-8.8,42.3-23.2,72.8-7.7
		c30.5,15.4,36.4,30.5,49.3,29.1c0,0-14.7,4.8-26.5-2.6c0,0,36.8,54.4,61.8,47.8c25-6.6,59.9-36.4,80.2-10.7c0,0-16.2-12.1-41.2,8.8
		c-25,21-49.6,34.2-79.1,22.1c-29.4-12.1-52.2-39.7-62.5-44.5c-10.3-4.8-24.6-12.9-43,0.4c-18.4,13.2-28.7,28.7-50.4,23.9
		c-21.7-4.8-25.4-3.3-28-3.3c0,0,19.5,4.8,29.1,11c9.6,6.3,39,1.1,51.5-3.7c12.5-4.8,41.6-1.5,59.2,10.7
		c17.7,12.1,32,13.2,39.3,11.8c7.4-1.5,25.7,4.4,29.4,9.6c0,0-17.3-10.7-31.3-4.8c-14,5.9-39.3,11-53.3,0.7
		c-14-10.3-40.1-16.2-42.7-11c-2.6,5.2-2.6,9.9,4,12.5c6.6,2.6,34.2-8.5,40.1,7c0,0-19.9-8.8-35.3,3.3
		c-15.4,12.1-51.1,28.3-71.3,25.7C694.1,192.2,615.1,176.3,618,107z"/>
	
		<linearGradient id="SVGID_2_" gradientUnits="userSpaceOnUse" x1="610.7093" y1="-137.6803" x2="610.7093" y2="-539.6208" gradientTransform="matrix(0 1 -1 0 473.5446 -418.786)">
		<stop  offset="0" style="stop-color:#FCB316"/>
		<stop  offset="0.3473" style="stop-color:#F58220"/>
		<stop  offset="0.8909" style="stop-color:#ED1C24"/>
	</linearGradient>
	<path class="st1" d="M630.5,159.5c0,0,34.9,54.1,84.9,43.8c50-10.3,78.7-46,102.2-25c0,0-23.9-5.5-36.8,9.9
		c-12.9,15.4-29.4,23.9-37.1,23.9c0,0,14,7.7,30.5,0c0,0-37.5,22.8-77.6,6.3C656.6,201.8,630.5,159.5,630.5,159.5z"/>
	
		<linearGradient id="SVGID_3_" gradientUnits="userSpaceOnUse" x1="435.7686" y1="-137.6798" x2="435.7686" y2="-539.6182" gradientTransform="matrix(0 1 -1 0 473.5446 -418.786)">
		<stop  offset="0" style="stop-color:#FCB316"/>
		<stop  offset="0.3473" style="stop-color:#F58220"/>
		<stop  offset="0.8909" style="stop-color:#ED1C24"/>
	</linearGradient>
	<path class="st2" d="M648.7,34c0,0,23-42.7,64.7-32.4c41.7,10.3,59.3,23.3,82.4,19.8c0,0-26.5,10.7-67.7-4.4S648.7,34,648.7,34z"/>
	
		<linearGradient id="SVGID_4_" gradientUnits="userSpaceOnUse" x1="519.1443" y1="-137.6809" x2="519.1443" y2="-539.6243" gradientTransform="matrix(0 1 -1 0 473.5446 -418.786)">
		<stop  offset="0" style="stop-color:#FCB316"/>
		<stop  offset="0.3473" style="stop-color:#F58220"/>
		<stop  offset="0.8909" style="stop-color:#ED1C24"/>
	</linearGradient>
	<path class="st3" d="M873.7,88.4c0,0,8.8,20.1,47.1,13.7c38.2-6.4,45.1-13,64.2-6.2c0,0-28.5-1.6-55.7,12.3
		C896.3,124.2,873.7,88.4,873.7,88.4z"/>
	<path class="st4" d="M942.4,141.8c0,0,10.7-14.7,27.6-10.3c16.9,4.4,35.7,2.6,35.7,2.6s-28,5.4-37.1,2.2
		C959.3,133,942.4,141.8,942.4,141.8z"/>
	
		<linearGradient id="SVGID_5_" gradientUnits="userSpaceOnUse" x1="538.374" y1="-137.6794" x2="538.374" y2="-539.6193" gradientTransform="matrix(0 1 -1 0 473.5446 -418.786)">
		<stop  offset="0" style="stop-color:#FCB316"/>
		<stop  offset="0.3473" style="stop-color:#F58220"/>
		<stop  offset="0.8909" style="stop-color:#ED1C24"/>
	</linearGradient>
	<path class="st5" d="M742.7,127.9c0,0,19.1-4,27.2-14c8.1-9.9,32-20.6,51.5,0c19.5,20.6,27.2,23.2,27.2,23.2s-29.8-15.8-41.9-21.7
		c-12.1-5.9-27.9-2.9-34.9,2.2C764.7,122.7,745.4,129.5,742.7,127.9z"/>
	
		<linearGradient id="SVGID_6_" gradientUnits="userSpaceOnUse" x1="520.8987" y1="-105.5875" x2="520.8987" y2="-343.0003" gradientTransform="matrix(0 1 -1 0 473.5446 -418.786)">
		<stop  offset="1.818180e-02" style="stop-color:#FECF0A"/>
		<stop  offset="0.2667" style="stop-color:#FDB515"/>
		<stop  offset="0.3591" style="stop-color:#FCAF17"/>
		<stop  offset="0.4976" style="stop-color:#F9A01B"/>
		<stop  offset="0.6648" style="stop-color:#F6891F"/>
		<stop  offset="0.8528" style="stop-color:#F26722"/>
		<stop  offset="1" style="stop-color:#EF4023"/>
	</linearGradient>
	<path class="st6" d="M627.2,103.1c0,0-4-40.8,28.3-50c32.4-9.2,46.7,0,46.7,0s-22.8-4.8-25,4.4c-2.2,9.2,7.7,10.7,12.9,9.6
		c5.1-1.1,15.4-5.1,24.3,1.1c8.8,6.3,22.4,12.9,38.6,10.7c0,0-20.3,6.9-40.1-2.8C693,66.3,686.8,86.5,693,91.3
		c6.3,4.8,9.6,7.4,19.1,2.6c9.6-4.8,23.5-0.4,27.6,3.3c0,0-19.5-2.8-18.6,9.6c0.9,12.3,14.7,28.3,67.1,7.4c0,0-27.6,22.1-52.8,14.9
		c-25.2-7.2-43.8-15.8-54.4-11.2c-10.7,4.6-14.7,17.7-7,27.4c7.7,9.7,26.8,8.3,26.8,8.3S627,170,627.2,103.1z"/>
	
		<linearGradient id="SVGID_7_" gradientUnits="userSpaceOnUse" x1="523.8804" y1="-205.9379" x2="519.8691" y2="-85.5946" gradientTransform="matrix(0 1 -1 0 473.5446 -418.786)">
		<stop  offset="1.818180e-02" style="stop-color:#FECF0A"/>
		<stop  offset="1" style="stop-color:#FFFFFF"/>
	</linearGradient>
	<path class="st7" d="M627.2,93.5c0,0,15.9-27.7,48.5-17.4c0,0-28.4-2-34.3,15.4c0,0,12-10.8,23.8-0.2
		c11.8,10.5,31.3,19.7,48.8,10.8c0,0-21.8,16.4-43.4,5.9c-21.6-10.5-28,2.5-24.3,11c3.7,8.6,11.5,15,19.1,14.2
		C665.4,133.2,619.7,147.4,627.2,93.5z"/>
</g>
<linearGradient id="SVGID_8_" gradientUnits="userSpaceOnUse" x1="3.7754" y1="103.9863" x2="177.8143" y2="103.9863">
	<stop  offset="1.818180e-02" style="stop-color:#FECF0A"/>
	<stop  offset="0.2667" style="stop-color:#FDB515"/>
	<stop  offset="0.3591" style="stop-color:#FCAF17"/>
	<stop  offset="0.4976" style="stop-color:#F9A01B"/>
	<stop  offset="0.6648" style="stop-color:#F6891F"/>
	<stop  offset="0.8528" style="stop-color:#F26722"/>
	<stop  offset="1" style="stop-color:#EF4023"/>
</linearGradient>
<path class="st8" d="M122.8,195.8l-1.9-24.5h-52l-10.4,24.5H3.8l48-113.2h55.1l-18.2,42.9h29.1l-3.4-42.9h55.1l8.2,113.2H122.8z
	 M14.1,67.2l9.5-55h140.7l4,55H14.1z"/>
<linearGradient id="SVGID_9_" gradientUnits="userSpaceOnUse" x1="220.6626" y1="103.9863" x2="414.0707" y2="103.9863">
	<stop  offset="1.818180e-02" style="stop-color:#FECF0A"/>
	<stop  offset="0.2667" style="stop-color:#FDB515"/>
	<stop  offset="0.3591" style="stop-color:#FCAF17"/>
	<stop  offset="0.4976" style="stop-color:#F9A01B"/>
	<stop  offset="0.6648" style="stop-color:#F6891F"/>
	<stop  offset="0.8528" style="stop-color:#F26722"/>
	<stop  offset="1" style="stop-color:#EF4023"/>
</linearGradient>
<path class="st9" d="M408.6,82.5c-2.1,11.8-8,22-17.8,30.4c-9.9,8.3-20.7,12.5-32.4,12.5h-70.5l-2.7,15.3h113.2l-9.8,55h-168
	l12.2-70.3c2-11.9,7.8-22,17.6-30.3c9.8-8.4,20.6-12.6,32.5-12.6H408.6z M414.1,47.7c0,1.3-0.1,2.5-0.2,3.6
	c-0.1,1.2-0.3,2.4-0.5,3.6l-2.2,12.2H243l9.7-55h125.5c10.5,0,19.1,3.4,25.8,10.1C410.7,29,414.1,37.5,414.1,47.7z"/>
<linearGradient id="SVGID_10_" gradientUnits="userSpaceOnUse" x1="435.439" y1="103.9863" x2="635.8414" y2="103.9863">
	<stop  offset="1.818180e-02" style="stop-color:#FECF0A"/>
	<stop  offset="0.2667" style="stop-color:#FDB515"/>
	<stop  offset="0.3591" style="stop-color:#FCAF17"/>
	<stop  offset="0.4976" style="stop-color:#F9A01B"/>
	<stop  offset="0.6648" style="stop-color:#F6891F"/>
	<stop  offset="0.8528" style="stop-color:#F26722"/>
	<stop  offset="1" style="stop-color:#EF4023"/>
</linearGradient>
<path class="st10" d="M603.4,195.8h-168l81.6-113.1h67.7l-42,58.1h70.5L603.4,195.8z M595.8,67.2H438.1l9.5-55h188.2L595.8,67.2z"/>
<g>
	<path class="st11" d="M65.7,259.7c21.4,0,38.4,17.6,38.4,47.6s-17,47.6-38.4,47.6c-12.4,0-21.1-5.4-25.5-13.8v12.7H3.6V231.9h36.6
		v41.7C44.6,265.2,53.4,259.7,65.7,259.7z M53.5,291.7c-7.6,0-13.5,5.4-13.5,15.7c0,10.2,5.9,15.7,13.5,15.7
		c7.6,0,13.5-5.4,13.5-15.7C67,297.1,61.1,291.7,53.5,291.7z"/>
	<path class="st11" d="M158.1,354.9c-27.8,0-47.4-18-47.4-47.6c0-29.7,19.6-47.6,47.4-47.6s47.4,17.6,47.4,46.8
		c0,2.3-0.2,4.9-0.5,7.2h-58.7c0.5,9.4,4.9,12,9.9,12c4.8,0,7.2-2.6,8.6-5.4h38.7C199.7,340.1,181.5,354.9,158.1,354.9z
		 M146.8,297.8h21.7c0-6.4-4.9-9.4-10.4-9.4C152,288.4,147.9,291.4,146.8,297.8z"/>
	<path class="st11" d="M222.9,291.4h-11.5v-30.5h11.5v-22.4h36.6v22.4h15.2v30.5h-15.2v25c0,4.3,2,6.3,6.8,6.3h8.7v31.1h-13.8
		c-21.7,0-38.2-9.2-38.2-38.1V291.4z"/>
	<path class="st11" d="M294.7,291.4h-11.5v-30.5h11.5v-22.4h36.6v22.4h15.2v30.5h-15.2v25c0,4.3,2,6.3,6.8,6.3h8.7v31.1h-13.8
		c-21.7,0-38.2-9.2-38.2-38.1V291.4z"/>
	<path class="st11" d="M358.1,235.5c0-10.2,8.1-18.3,21.1-18.3c12.9,0,20.9,8.1,20.9,18.3c0,10-8.1,18-20.9,18
		C366.2,253.5,358.1,245.6,358.1,235.5z M360.8,260.9h36.6v92.9h-36.6V260.9z"/>
	<path class="st11" d="M476.4,304.5c0-8.9-5.1-14.3-13-14.3c-8.1,0-13,5.4-13,14.3v49.3h-36.6v-92.9h36.6V275
		c5.3-8.1,14.5-14.8,28.5-14.8c21.4,0,33.9,15.7,33.9,39.7v53.9h-36.4V304.5z"/>
	<path class="st11" d="M562.1,259.7c12.4,0,21.3,5.4,25.7,13.8v-12.7h36.4v91.3c0,24.5-12.7,47.3-47.4,47.3
		c-30.3,0-47.9-15.3-50.4-38.9h35.9c1,4.8,5.1,7.2,11.9,7.2c7.4,0,13.7-2.6,13.7-15.7v-11c-4.4,8.4-13.3,13.8-25.7,13.8
		c-21.4,0-38.4-17.6-38.4-47.6S540.7,259.7,562.1,259.7z M574.3,291.7c-7.6,0-13.5,5.4-13.5,15.7c0,10.2,5.9,15.7,13.5,15.7
		s13.5-5.4,13.5-15.7C587.8,297.1,581.9,291.7,574.3,291.7z"/>
</g>
</svg>
