<?xml version="1.0" encoding="utf-8"?>
<!-- Generator: Adobe Illustrator 22.0.0, SVG Export Plug-In . SVG Version: 6.00 Build 0)  -->
<svg version="1.1" id="Capa_1" xmlns="http://www.w3.org/2000/svg" xmlns:xlink="http://www.w3.org/1999/xlink" x="0px" y="0px"
	 viewBox="0 0 286.5 286.5" style="enable-background:new 0 0 286.5 286.5;" xml:space="preserve">
<style type="text/css">
	.st0{fill:#FFFFFF;}
</style>
<path class="st0" d="M143.2,0C64.3,0,0,64.3,0,143.2c0,79,64.3,143.2,143.2,143.2c79,0,143.2-64.3,143.2-143.2
	C286.5,64.3,222.2,0,143.2,0z M127.9,52.7c0-8.3,6.7-15,15-15s15,6.7,15,15v48.2c0,8.3-6.7,15-15,15s-15-6.7-15-15V52.7z
	 M143.2,237.8C90.7,237.8,48,195,48,142.5c0-28.7,12.7-55.6,35-73.8c6.4-5.2,15.9-4.3,21.1,2.1c5.2,6.4,4.3,15.9-2.1,21.1
	c-15.2,12.5-24,30.9-24,50.5c0,36,29.3,65.3,65.3,65.3c36,0,65.3-29.3,65.3-65.3c0-18.8-8.1-36.7-22.3-49.1
	c-6.2-5.5-6.9-14.9-1.4-21.2c5.5-6.2,14.9-6.9,21.2-1.4c20.7,18.1,32.5,44.2,32.5,71.7C238.5,195,195.8,237.8,143.2,237.8z"/>
</svg>
